game_counter, score, frames, highscore
1, 0, 49, 0
2, 1, 85, 1
3, 0, 49, 1
4, 2, 97, 2
5, 0, 49, 2
6, 0, 49, 2
7, 0, 52, 2
8, 0, 55, 2
9, 0, 50, 2
10, 0, 49, 2
11, 0, 49, 2
12, 0, 49, 2
13, 0, 49, 2
14, 0, 49, 2
15, 0, 49, 2
16, 0, 52, 2
17, 0, 49, 2
18, 0, 49, 2
19, 0, 51, 2
20, 0, 49, 2
21, 0, 49, 2
22, 0, 49, 2
23, 0, 49, 2
24, 0, 49, 2
25, 0, 49, 2
26, 0, 49, 2
27, 0, 33, 2
28, 0, 18, 2
29, 0, 41, 2
30, 0, 53, 2
31, 0, 49, 2
32, 0, 33, 2
33, 0, 49, 2
34, 0, 49, 2
35, 0, 51, 2
36, 0, 37, 2
37, 0, 52, 2
38, 0, 18, 2
39, 0, 49, 2
40, 1, 60, 2
41, 0, 58, 2
42, 0, 45, 2
43, 0, 48, 2
44, 0, 33, 2
45, 0, 49, 2
46, 0, 49, 2
47, 0, 18, 2
48, 0, 49, 2
49, 0, 49, 2
50, 1, 91, 2
51, 0, 49, 2
52, 0, 49, 2
53, 0, 51, 2
54, 0, 53, 2
55, 1, 64, 2
56, 0, 52, 2
57, 0, 53, 2
58, 0, 49, 2
59, 1, 61, 2
60, 0, 49, 2
61, 0, 39, 2
62, 0, 58, 2
63, 0, 51, 2
64, 0, 54, 2
65, 0, 51, 2
66, 0, 50, 2
67, 0, 49, 2
68, 0, 49, 2
69, 1, 65, 2
70, 0, 49, 2
71, 1, 68, 2
72, 0, 57, 2
73, 0, 59, 2
74, 0, 49, 2
75, 0, 53, 2
76, 0, 55, 2
77, 0, 56, 2
78, 0, 51, 2
79, 1, 63, 2
80, 1, 87, 2
81, 0, 55, 2
82, 0, 49, 2
83, 0, 56, 2
84, 0, 55, 2
85, 0, 56, 2
86, 2, 126, 2
87, 1, 89, 2
88, 0, 52, 2
89, 0, 51, 2
90, 0, 49, 2
91, 0, 33, 2
92, 0, 18, 2
93, 0, 49, 2
94, 0, 49, 2
95, 0, 50, 2
96, 0, 49, 2
97, 0, 49, 2
98, 0, 49, 2
99, 0, 52, 2
100, 0, 49, 2
101, 0, 18, 2
102, 0, 49, 2
103, 0, 49, 2
104, 0, 51, 2
105, 1, 61, 2
106, 1, 92, 2
107, 0, 55, 2
108, 0, 55, 2
109, 2, 96, 2
110, 0, 55, 2
111, 0, 54, 2
112, 1, 88, 2
113, 0, 57, 2
114, 0, 49, 2
115, 0, 59, 2
116, 0, 58, 2
117, 0, 49, 2
118, 0, 57, 2
119, 0, 49, 2
120, 1, 64, 2
121, 0, 55, 2
122, 0, 59, 2
123, 1, 60, 2
124, 1, 64, 2
125, 1, 68, 2
126, 0, 50, 2
127, 0, 49, 2
128, 0, 50, 2
129, 1, 89, 2
130, 0, 51, 2
131, 0, 54, 2
132, 0, 49, 2
133, 0, 56, 2
134, 0, 50, 2
135, 0, 56, 2
136, 0, 49, 2
137, 0, 53, 2
138, 0, 57, 2
139, 1, 62, 2
140, 1, 85, 2
141, 2, 102, 2
142, 0, 49, 2
143, 1, 62, 2
144, 0, 57, 2
145, 1, 65, 2
146, 1, 62, 2
147, 0, 57, 2
148, 0, 51, 2
149, 1, 64, 2
150, 0, 49, 2
151, 0, 51, 2
152, 0, 59, 2
153, 0, 52, 2
154, 1, 91, 2
155, 1, 89, 2
156, 1, 61, 2
157, 0, 49, 2
158, 1, 63, 2
159, 0, 49, 2
160, 1, 63, 2
161, 1, 63, 2
162, 1, 90, 2
163, 1, 65, 2
164, 1, 61, 2
165, 0, 58, 2
166, 1, 61, 2
167, 1, 66, 2
168, 0, 50, 2
169, 0, 57, 2
170, 1, 65, 2
171, 1, 94, 2
172, 0, 54, 2
173, 1, 63, 2
174, 1, 62, 2
175, 0, 49, 2
176, 1, 65, 2
177, 0, 52, 2
178, 0, 50, 2
179, 0, 54, 2
180, 0, 49, 2
181, 1, 61, 2
182, 0, 58, 2
183, 0, 56, 2
184, 1, 61, 2
185, 0, 58, 2
186, 0, 54, 2
187, 0, 57, 2
188, 0, 49, 2
189, 1, 64, 2
190, 1, 61, 2
191, 0, 51, 2
192, 0, 50, 2
193, 0, 53, 2
194, 1, 66, 2
195, 0, 57, 2
196, 0, 54, 2
197, 1, 61, 2
198, 0, 52, 2
199, 1, 93, 2
200, 0, 49, 2
201, 0, 51, 2
202, 0, 57, 2
203, 1, 60, 2
204, 0, 58, 2
205, 0, 50, 2
206, 0, 49, 2
207, 1, 60, 2
208, 0, 52, 2
209, 1, 62, 2
210, 1, 65, 2
211, 1, 62, 2
212, 1, 66, 2
213, 0, 51, 2
214, 0, 50, 2
215, 1, 61, 2
216, 1, 88, 2
217, 1, 91, 2
218, 1, 90, 2
219, 0, 50, 2
220, 0, 59, 2
221, 1, 61, 2
222, 0, 53, 2
223, 0, 53, 2
224, 1, 67, 2
225, 0, 49, 2
226, 0, 49, 2
227, 0, 50, 2
228, 1, 62, 2
229, 0, 57, 2
230, 0, 55, 2
231, 1, 61, 2
232, 0, 57, 2
233, 1, 60, 2
234, 0, 59, 2
235, 0, 59, 2
236, 0, 59, 2
237, 1, 63, 2
238, 0, 58, 2
239, 0, 58, 2
240, 0, 50, 2
241, 0, 59, 2
242, 0, 52, 2
243, 1, 60, 2
244, 0, 57, 2
245, 1, 64, 2
246, 1, 64, 2
247, 0, 52, 2
248, 1, 60, 2
249, 0, 53, 2
250, 0, 50, 2
251, 1, 63, 2
252, 1, 63, 2
253, 1, 62, 2
254, 2, 133, 2
255, 1, 64, 2
256, 0, 54, 2
257, 0, 58, 2
258, 1, 60, 2
259, 1, 61, 2
260, 1, 62, 2
261, 1, 65, 2
262, 0, 57, 2
263, 1, 61, 2
264, 1, 94, 2
265, 1, 60, 2
266, 0, 58, 2
267, 0, 57, 2
268, 0, 55, 2
269, 1, 60, 2
270, 1, 60, 2
271, 0, 56, 2
272, 0, 56, 2
273, 0, 58, 2
274, 0, 58, 2
275, 0, 53, 2
276, 0, 49, 2
277, 0, 57, 2
278, 0, 56, 2
279, 1, 62, 2
280, 0, 53, 2
281, 1, 64, 2
282, 0, 57, 2
283, 0, 56, 2
284, 0, 55, 2
285, 1, 62, 2
286, 0, 53, 2
287, 0, 59, 2
288, 0, 59, 2
289, 0, 58, 2
290, 0, 56, 2
291, 0, 57, 2
292, 0, 57, 2
293, 0, 58, 2
294, 0, 55, 2
295, 0, 59, 2
296, 0, 59, 2
297, 1, 93, 2
298, 1, 60, 2
299, 0, 55, 2
300, 1, 60, 2
301, 0, 58, 2
302, 1, 61, 2
303, 0, 59, 2
304, 1, 67, 2
305, 1, 62, 2
306, 0, 58, 2
307, 1, 64, 2
308, 2, 96, 2
309, 0, 56, 2
310, 2, 102, 2
311, 0, 59, 2
312, 1, 67, 2
313, 1, 69, 2
314, 0, 49, 2
315, 0, 55, 2
316, 0, 58, 2
317, 0, 59, 2
318, 1, 63, 2
319, 1, 65, 2
320, 0, 49, 2
321, 1, 94, 2
322, 1, 64, 2
323, 0, 51, 2
324, 1, 65, 2
325, 0, 58, 2
326, 0, 57, 2
327, 0, 59, 2
328, 1, 65, 2
329, 1, 66, 2
330, 1, 69, 2
331, 1, 87, 2
332, 1, 86, 2
333, 1, 65, 2
334, 1, 63, 2
335, 0, 57, 2
336, 1, 65, 2
337, 1, 63, 2
338, 1, 94, 2
339, 2, 100, 2
340, 1, 63, 2
341, 1, 62, 2
342, 1, 61, 2
343, 0, 59, 2
344, 0, 57, 2
345, 0, 56, 2
346, 0, 59, 2
347, 2, 101, 2
348, 1, 61, 2
349, 1, 65, 2
350, 0, 49, 2
351, 0, 59, 2
352, 3, 134, 3
353, 2, 101, 3
354, 3, 168, 3
355, 1, 63, 3
356, 1, 62, 3
357, 0, 59, 3
358, 1, 60, 3
359, 1, 87, 3
360, 3, 143, 3
361, 3, 136, 3
362, 1, 63, 3
363, 1, 63, 3
364, 0, 59, 3
365, 1, 60, 3
366, 2, 99, 3
367, 2, 98, 3
368, 6, 245, 6
369, 2, 132, 6
370, 0, 58, 6
371, 2, 98, 6
372, 1, 91, 6
373, 1, 65, 6
374, 2, 131, 6
375, 1, 62, 6
376, 2, 100, 6
377, 1, 61, 6
378, 1, 62, 6
379, 3, 142, 6
380, 0, 59, 6
381, 2, 105, 6
382, 2, 97, 6
383, 1, 66, 6
384, 5, 242, 6
385, 1, 68, 6
386, 1, 64, 6
387, 0, 59, 6
388, 1, 63, 6
389, 1, 62, 6
390, 0, 59, 6
391, 1, 66, 6
392, 0, 49, 6
393, 0, 59, 6
394, 4, 172, 6
395, 3, 143, 6
396, 0, 50, 6
397, 3, 159, 6
398, 1, 65, 6
399, 2, 105, 6
400, 2, 98, 6
401, 1, 66, 6
402, 1, 62, 6
403, 9, 358, 9
404, 1, 62, 9
405, 4, 175, 9
406, 3, 141, 9
407, 5, 216, 9
408, 1, 66, 9
409, 5, 213, 9
410, 3, 143, 9
411, 1, 66, 9
412, 1, 62, 9
413, 8, 324, 9
414, 2, 133, 9
415, 2, 100, 9
416, 5, 216, 9
417, 1, 64, 9
418, 6, 246, 9
419, 7, 290, 9
420, 1, 65, 9
421, 6, 250, 9
422, 1, 69, 9
423, 11, 437, 11
424, 3, 141, 11
425, 3, 142, 11
426, 2, 105, 11
427, 1, 67, 11
428, 2, 97, 11
429, 1, 68, 11
430, 5, 216, 11
431, 3, 137, 11
432, 0, 52, 11
433, 1, 62, 11
434, 4, 178, 11
435, 2, 105, 11
436, 1, 68, 11
437, 1, 69, 11
438, 1, 66, 11
439, 4, 177, 11
440, 5, 216, 11
441, 4, 173, 11
442, 1, 65, 11
443, 5, 213, 11
444, 1, 65, 11
445, 1, 65, 11
446, 2, 105, 11
447, 1, 63, 11
448, 1, 68, 11
449, 5, 217, 11
450, 7, 291, 11
451, 1, 69, 11
452, 1, 67, 11
453, 1, 69, 11
454, 2, 105, 11
455, 5, 217, 11
456, 3, 137, 11
457, 2, 104, 11
458, 3, 143, 11
459, 1, 64, 11
460, 1, 67, 11
461, 2, 105, 11
462, 1, 66, 11
463, 1, 68, 11
464, 1, 66, 11
465, 3, 140, 11
466, 10, 393, 11
467, 1, 63, 11
468, 1, 67, 11
469, 2, 96, 11
470, 1, 67, 11
471, 3, 143, 11
472, 3, 140, 11
473, 5, 216, 11
474, 1, 67, 11
475, 2, 105, 11
476, 5, 209, 11
477, 4, 170, 11
478, 1, 69, 11
479, 3, 142, 11
480, 1, 66, 11
481, 4, 173, 11
482, 3, 140, 11
483, 3, 162, 11
484, 3, 142, 11
485, 2, 105, 11
486, 7, 289, 11
487, 1, 66, 11
488, 3, 143, 11
489, 2, 105, 11
490, 8, 319, 11
491, 2, 100, 11
492, 13, 513, 13
493, 3, 143, 13
494, 3, 141, 13
495, 5, 217, 13
496, 3, 143, 13
497, 1, 66, 13
498, 2, 104, 13
499, 17, 659, 17
500, 1, 69, 17
501, 3, 143, 17
502, 1, 69, 17
503, 3, 142, 17
504, 3, 142, 17
505, 1, 69, 17
506, 1, 67, 17
507, 3, 141, 17
508, 2, 100, 17
509, 3, 141, 17
510, 1, 64, 17
511, 3, 142, 17
512, 10, 400, 17
513, 3, 141, 17
514, 1, 67, 17
515, 3, 143, 17
516, 1, 67, 17
517, 11, 437, 17
518, 9, 363, 17
519, 3, 141, 17
520, 4, 173, 17
521, 1, 66, 17
522, 15, 585, 17
523, 1, 66, 17
524, 1, 67, 17
525, 3, 143, 17
526, 13, 510, 17
527, 2, 103, 17
528, 3, 141, 17
529, 1, 95, 17
530, 3, 141, 17
531, 1, 65, 17
532, 2, 105, 17
533, 6, 253, 17
534, 1, 63, 17
535, 1, 63, 17
536, 1, 64, 17
537, 1, 64, 17
538, 2, 105, 17
539, 7, 287, 17
540, 3, 140, 17
541, 6, 251, 17
542, 1, 68, 17
543, 27, 1028, 27
544, 13, 530, 27
545, 5, 214, 27
546, 16, 623, 27
547, 14, 544, 27
548, 7, 285, 27
549, 23, 880, 27
550, 9, 362, 27
551, 7, 287, 27
552, 3, 138, 27
553, 21, 807, 27
554, 21, 805, 27
555, 1, 65, 27
556, 1, 64, 27
557, 2, 104, 27
558, 1, 64, 27
559, 3, 141, 27
560, 3, 138, 27
561, 1, 65, 27
562, 5, 214, 27
563, 4, 178, 27
564, 6, 250, 27
565, 6, 251, 27
566, 3, 142, 27
567, 1, 65, 27
568, 1, 65, 27
569, 1, 66, 27
570, 1, 69, 27
571, 4, 176, 27
572, 6, 249, 27
573, 1, 64, 27
574, 5, 215, 27
575, 6, 251, 27
576, 1, 64, 27
577, 1, 63, 27
578, 1, 64, 27
579, 2, 103, 27
580, 5, 216, 27
581, 6, 252, 27
582, 3, 141, 27
583, 3, 142, 27
584, 2, 104, 27
585, 1, 68, 27
586, 3, 142, 27
587, 1, 67, 27
588, 8, 323, 27
589, 4, 178, 27
590, 11, 437, 27
591, 3, 141, 27
592, 2, 102, 27
593, 2, 102, 27
594, 3, 139, 27
595, 4, 178, 27
596, 9, 362, 27
597, 141, 5246, 141
598, 4, 176, 141
599, 21, 806, 141
600, 19, 732, 141
601, 57, 2157, 141
602, 69, 2582, 141
603, 30, 1139, 141
604, 131, 4876, 141
605, 189, 7024, 189
606, 232, 8639, 232
607, 102, 3796, 232
608, 68, 2564, 232
609, 15, 586, 232
610, 92, 3452, 232
611, 148, 5505, 232
612, 26, 990, 232
613, 16, 621, 232
614, 60, 2269, 232
615, 0, 50, 232
616, 3, 140, 232
617, 1, 67, 232
618, 19, 752, 232
619, 68, 2540, 232
620, 1, 64, 232
621, 14, 566, 232
622, 386, 14330, 386
623, 80, 3009, 386
624, 64, 2416, 386
625, 541, 20065, 541
626, 1029, 38121, 1029
627, 51, 1915, 1029
628, 729, 27023, 1029
629, 18, 692, 1029
630, 229, 8525, 1029
631, 73, 2751, 1029
632, 71, 2679, 1029
633, 271, 10074, 1029
634, 139, 5191, 1029
635, 135, 5024, 1029
636, 575, 21325, 1029
637, 136, 5082, 1029
638, 217, 8085, 1029
639, 25, 972, 1029
640, 85, 3177, 1029
641, 176, 6540, 1029
642, 170, 6342, 1029
643, 153, 5708, 1029
644, 489, 18140, 1029
645, 49, 1842, 1029
646, 845, 31293, 1029
647, 506, 18771, 1029
648, 266, 9891, 1029
649, 493, 18289, 1029
650, 1226, 45388, 1226
651, 188, 6984, 1226
652, 69, 2600, 1226
653, 569, 21100, 1226
654, 60, 2242, 1226
655, 2, 105, 1226
656, 49, 1860, 1226
657, 128, 4784, 1226
658, 364, 13518, 1226
659, 125, 4673, 1226
660, 611, 22655, 1226
661, 193, 7188, 1226
662, 286, 10631, 1226
663, 202, 7522, 1226
664, 9, 381, 1226
665, 144, 5354, 1226
666, 88, 3304, 1226
667, 70, 2640, 1226
668, 191, 7117, 1226
669, 123, 4599, 1226
670, 77, 2875, 1226
671, 137, 5117, 1226
672, 96, 3609, 1226
673, 41, 1567, 1226
674, 14, 544, 1226
675, 5, 209, 1226
676, 357, 13256, 1226
677, 117, 4378, 1226
678, 121, 4530, 1226
679, 249, 9260, 1226
680, 122, 4562, 1226
681, 303, 11265, 1226
682, 405, 15011, 1226
683, 113, 4228, 1226
684, 256, 9520, 1226
685, 46, 1757, 1226
686, 24, 936, 1226
687, 89, 3348, 1226
688, 48, 1824, 1226
689, 245, 9113, 1226
690, 85, 3196, 1226
691, 98, 3652, 1226
692, 49, 1860, 1226
693, 291, 10818, 1226
694, 25, 949, 1226
695, 29, 1121, 1226
696, 37, 1417, 1226
697, 43, 1616, 1226
698, 56, 2099, 1226
699, 238, 8857, 1226
700, 252, 9378, 1226
701, 103, 3858, 1226
702, 13, 536, 1226
703, 73, 2748, 1226
704, 232, 8607, 1226
705, 6, 281, 1226
706, 3, 139, 1226
707, 6, 272, 1226
708, 130, 4858, 1226
709, 3, 135, 1226
710, 38, 1430, 1226
711, 38, 1464, 1226
712, 47, 1786, 1226
713, 45, 1715, 1226
714, 56, 2098, 1226
715, 54, 2053, 1226
716, 6, 250, 1226
717, 5, 232, 1226
718, 119, 4451, 1226
719, 1, 63, 1226
720, 54, 2048, 1226
721, 1, 95, 1226
722, 191, 7125, 1226
723, 39, 1491, 1226
724, 170, 6341, 1226
725, 10, 397, 1226
726, 86, 3234, 1226
727, 62, 2342, 1226
728, 167, 6230, 1226
729, 33, 1269, 1226
730, 7, 289, 1226
731, 41, 1574, 1226
732, 36, 1390, 1226
733, 13, 506, 1226
734, 102, 3800, 1226
735, 31, 1205, 1226
736, 102, 3823, 1226
737, 70, 2617, 1226
738, 76, 2861, 1226
739, 60, 2244, 1226
740, 19, 728, 1226
741, 4, 171, 1226
742, 17, 679, 1226
743, 27, 1025, 1226
744, 61, 2304, 1226
745, 73, 2750, 1226
746, 9, 356, 1226
747, 16, 644, 1226
748, 10, 397, 1226
749, 37, 1396, 1226
750, 121, 4529, 1226
751, 79, 2949, 1226
752, 17, 685, 1226
753, 33, 1248, 1226
754, 37, 1417, 1226
755, 22, 862, 1226
756, 70, 2638, 1226
757, 22, 873, 1226
758, 14, 543, 1226
759, 53, 2011, 1226
760, 123, 4600, 1226
761, 14, 566, 1226
762, 20, 790, 1226
763, 12, 492, 1226
764, 26, 1017, 1226
765, 37, 1417, 1226
766, 13, 529, 1226
767, 92, 3452, 1226
768, 65, 2463, 1226
769, 11, 430, 1226
770, 49, 1868, 1226
771, 91, 3421, 1226
772, 35, 1346, 1226
773, 39, 1495, 1226
774, 106, 3978, 1226
775, 54, 2047, 1226
776, 22, 873, 1226
777, 8, 320, 1226
778, 28, 1094, 1226
779, 7, 308, 1226
780, 9, 358, 1226
781, 0, 57, 1226
782, 7, 306, 1226
783, 22, 863, 1226
784, 5, 232, 1226
785, 18, 692, 1226
786, 7, 314, 1226
787, 55, 2061, 1226
788, 73, 2749, 1226
789, 30, 1137, 1226
790, 4, 204, 1226
791, 22, 865, 1226
792, 2, 97, 1226
793, 2, 97, 1226
794, 31, 1195, 1226
795, 37, 1420, 1226
796, 24, 916, 1226
797, 90, 3380, 1226
798, 70, 2640, 1226
799, 18, 715, 1226
800, 96, 3601, 1226
801, 50, 1876, 1226
802, 201, 7495, 1226
803, 22, 837, 1226
804, 0, 58, 1226
805, 78, 2939, 1226
806, 61, 2283, 1226
807, 43, 1618, 1226
808, 33, 1274, 1226
809, 33, 1247, 1226
810, 52, 1979, 1226
811, 51, 1914, 1226
812, 41, 1569, 1226
813, 9, 382, 1226
814, 8, 352, 1226
815, 24, 940, 1226
816, 81, 3046, 1226
817, 106, 3971, 1226
818, 1, 65, 1226
819, 70, 2639, 1226
820, 28, 1085, 1226
821, 107, 4015, 1226
822, 13, 528, 1226
823, 35, 1343, 1226
824, 5, 236, 1226
825, 35, 1343, 1226
826, 15, 612, 1226
827, 15, 605, 1226
828, 76, 2861, 1226
829, 25, 948, 1226
830, 53, 2017, 1226
831, 136, 5059, 1226
832, 5, 240, 1226
833, 1, 86, 1226
834, 30, 1159, 1226
835, 8, 355, 1226
836, 8, 346, 1226
837, 28, 1058, 1226
838, 180, 6708, 1226
839, 59, 2230, 1226
840, 40, 1532, 1226
841, 122, 4562, 1226
842, 9, 381, 1226
843, 89, 3343, 1226
844, 71, 2674, 1226
845, 5, 214, 1226
846, 73, 2748, 1226
847, 49, 1868, 1226
848, 100, 3748, 1226
849, 12, 469, 1226
850, 35, 1342, 1226
851, 2, 97, 1226
852, 94, 3506, 1226
853, 29, 1123, 1226
854, 4, 196, 1226
855, 15, 584, 1226
856, 3, 160, 1226
857, 8, 320, 1226
858, 5, 235, 1226
859, 0, 52, 1226
860, 0, 52, 1226
861, 1, 87, 1226
862, 6, 271, 1226
863, 1, 67, 1226
864, 6, 272, 1226
865, 2, 130, 1226
866, 1, 67, 1226
867, 2, 124, 1226
868, 3, 167, 1226
869, 1, 85, 1226
870, 7, 314, 1226
871, 4, 197, 1226
872, 1, 86, 1226
873, 2, 124, 1226
874, 1, 89, 1226
875, 4, 199, 1226
876, 4, 198, 1226
877, 4, 201, 1226
878, 1, 87, 1226
879, 2, 124, 1226
880, 2, 123, 1226
881, 4, 176, 1226
882, 1, 66, 1226
883, 3, 160, 1226
884, 2, 102, 1226
885, 2, 133, 1226
886, 1, 66, 1226
887, 1, 92, 1226
888, 10, 392, 1226
889, 1, 63, 1226
890, 1, 91, 1226
891, 3, 158, 1226
892, 1, 86, 1226
893, 1, 62, 1226
894, 0, 51, 1226
895, 1, 66, 1226
896, 0, 53, 1226
897, 0, 53, 1226
898, 0, 57, 1226
899, 0, 57, 1226
900, 0, 56, 1226
901, 1, 90, 1226
902, 0, 56, 1226
903, 0, 53, 1226
904, 1, 90, 1226
905, 1, 66, 1226
906, 0, 50, 1226
907, 1, 86, 1226
908, 0, 51, 1226
909, 0, 54, 1226
910, 0, 52, 1226
911, 1, 91, 1226
912, 0, 55, 1226
913, 1, 86, 1226
914, 0, 51, 1226
915, 1, 89, 1226
916, 1, 65, 1226
917, 0, 50, 1226
918, 0, 51, 1226
919, 0, 50, 1226
920, 0, 50, 1226
921, 0, 57, 1226
922, 1, 60, 1226
923, 0, 58, 1226
924, 0, 50, 1226
925, 0, 50, 1226
926, 0, 49, 1226
927, 0, 50, 1226
928, 1, 87, 1226
929, 0, 51, 1226
930, 0, 51, 1226
931, 0, 54, 1226
932, 0, 51, 1226
933, 0, 53, 1226
934, 1, 87, 1226
935, 0, 51, 1226
936, 0, 50, 1226
937, 0, 49, 1226
938, 0, 57, 1226
939, 0, 58, 1226
940, 0, 49, 1226
941, 0, 49, 1226
942, 0, 55, 1226
943, 1, 66, 1226
944, 0, 49, 1226
945, 0, 57, 1226
946, 1, 87, 1226
947, 0, 50, 1226
948, 0, 57, 1226
949, 0, 57, 1226
950, 0, 49, 1226
951, 0, 52, 1226
952, 0, 54, 1226
953, 0, 56, 1226
954, 0, 50, 1226
955, 0, 49, 1226
956, 0, 51, 1226
957, 0, 49, 1226
958, 0, 49, 1226
959, 0, 55, 1226
960, 0, 54, 1226
961, 0, 49, 1226
962, 0, 51, 1226
963, 1, 85, 1226
964, 0, 49, 1226
965, 0, 59, 1226
966, 0, 55, 1226
967, 0, 50, 1226
968, 0, 49, 1226
969, 0, 49, 1226
970, 0, 49, 1226
971, 0, 49, 1226
972, 0, 49, 1226
973, 0, 55, 1226
974, 0, 49, 1226
975, 0, 49, 1226
976, 0, 49, 1226
977, 0, 49, 1226
978, 0, 49, 1226
979, 0, 55, 1226
980, 0, 49, 1226
981, 0, 49, 1226
982, 0, 49, 1226
983, 0, 57, 1226
984, 0, 49, 1226
985, 0, 50, 1226
986, 0, 49, 1226
987, 0, 49, 1226
988, 0, 49, 1226
989, 0, 49, 1226
990, 0, 53, 1226
991, 0, 49, 1226
992, 0, 49, 1226
993, 0, 51, 1226
994, 0, 49, 1226
995, 0, 50, 1226
996, 0, 50, 1226
997, 0, 49, 1226
998, 0, 49, 1226
999, 0, 50, 1226
1000, 0, 49, 1226
1001, 0, 49, 1226
1002, 0, 49, 1226
1003, 0, 49, 1226
1004, 1, 87, 1226
1005, 0, 49, 1226
1006, 0, 49, 1226
1007, 0, 52, 1226
1008, 0, 49, 1226
1009, 0, 49, 1226
1010, 0, 49, 1226
1011, 0, 49, 1226
1012, 0, 49, 1226
1013, 0, 50, 1226
1014, 0, 49, 1226
1015, 1, 66, 1226
1016, 1, 87, 1226
1017, 0, 49, 1226
1018, 0, 49, 1226
1019, 0, 49, 1226
1020, 1, 87, 1226
1021, 0, 49, 1226
1022, 0, 55, 1226
1023, 0, 49, 1226
1024, 0, 49, 1226
1025, 0, 50, 1226
1026, 0, 49, 1226
1027, 0, 55, 1226
1028, 0, 49, 1226
1029, 1, 85, 1226
1030, 0, 55, 1226
1031, 1, 85, 1226
1032, 0, 49, 1226
1033, 0, 49, 1226
1034, 0, 49, 1226
1035, 0, 49, 1226
1036, 0, 49, 1226
1037, 0, 49, 1226
1038, 0, 49, 1226
1039, 0, 50, 1226
1040, 0, 55, 1226
1041, 0, 50, 1226
1042, 0, 49, 1226
1043, 0, 57, 1226
1044, 0, 49, 1226
1045, 0, 49, 1226
1046, 0, 49, 1226
1047, 0, 49, 1226
1048, 0, 49, 1226
1049, 0, 49, 1226
1050, 0, 49, 1226
1051, 0, 55, 1226
1052, 0, 55, 1226
1053, 0, 49, 1226
1054, 0, 49, 1226
1055, 0, 49, 1226
1056, 0, 49, 1226
1057, 0, 49, 1226
1058, 0, 57, 1226
1059, 0, 50, 1226
1060, 0, 49, 1226
1061, 0, 49, 1226
1062, 0, 49, 1226
1063, 0, 50, 1226
1064, 0, 49, 1226
1065, 0, 49, 1226
1066, 0, 49, 1226
1067, 0, 49, 1226
1068, 0, 49, 1226
1069, 0, 55, 1226
1070, 0, 49, 1226
1071, 0, 49, 1226
1072, 0, 57, 1226
1073, 0, 49, 1226
1074, 0, 49, 1226
1075, 0, 49, 1226
1076, 0, 49, 1226
1077, 0, 49, 1226
1078, 0, 50, 1226
1079, 0, 49, 1226
1080, 0, 53, 1226
1081, 0, 57, 1226
1082, 0, 50, 1226
1083, 0, 53, 1226
1084, 0, 55, 1226
1085, 0, 49, 1226
1086, 0, 49, 1226
1087, 0, 49, 1226
1088, 0, 50, 1226
1089, 0, 53, 1226
1090, 0, 49, 1226
1091, 0, 52, 1226
1092, 0, 49, 1226
1093, 1, 65, 1226
1094, 0, 53, 1226
1095, 0, 53, 1226
1096, 0, 49, 1226
1097, 0, 49, 1226
1098, 0, 49, 1226
1099, 0, 53, 1226
1100, 0, 49, 1226
1101, 0, 49, 1226
1102, 0, 49, 1226
1103, 0, 49, 1226
1104, 0, 49, 1226
1105, 0, 52, 1226
1106, 0, 49, 1226
1107, 0, 49, 1226
1108, 0, 49, 1226
1109, 0, 49, 1226
1110, 0, 49, 1226
1111, 0, 52, 1226
1112, 0, 49, 1226
1113, 0, 50, 1226
1114, 0, 50, 1226
1115, 0, 52, 1226
1116, 0, 49, 1226
1117, 0, 49, 1226
1118, 1, 65, 1226
1119, 0, 55, 1226
1120, 0, 49, 1226
1121, 0, 49, 1226
1122, 0, 49, 1226
1123, 0, 49, 1226
1124, 0, 49, 1226
1125, 0, 49, 1226
1126, 0, 49, 1226
1127, 0, 49, 1226
1128, 0, 49, 1226
1129, 0, 49, 1226
1130, 0, 49, 1226
1131, 0, 49, 1226
1132, 0, 54, 1226
1133, 0, 49, 1226
1134, 0, 49, 1226
1135, 0, 49, 1226
1136, 0, 49, 1226
1137, 0, 49, 1226
1138, 0, 49, 1226
1139, 0, 49, 1226
1140, 0, 49, 1226
1141, 0, 49, 1226
1142, 0, 54, 1226
1143, 0, 49, 1226
1144, 0, 49, 1226
1145, 0, 49, 1226
1146, 0, 49, 1226
1147, 0, 50, 1226
1148, 0, 49, 1226
1149, 0, 49, 1226
1150, 0, 50, 1226
1151, 0, 52, 1226
1152, 0, 49, 1226
1153, 0, 49, 1226
1154, 0, 49, 1226
1155, 0, 49, 1226
1156, 0, 49, 1226
1157, 0, 51, 1226
1158, 0, 50, 1226
1159, 0, 49, 1226
1160, 0, 49, 1226
1161, 0, 49, 1226
1162, 0, 49, 1226
1163, 0, 49, 1226
1164, 0, 49, 1226
1165, 0, 49, 1226
1166, 0, 49, 1226
1167, 0, 51, 1226
1168, 0, 49, 1226
1169, 0, 51, 1226
1170, 0, 49, 1226
1171, 0, 49, 1226
1172, 0, 49, 1226
1173, 0, 51, 1226
1174, 0, 49, 1226
1175, 0, 49, 1226
1176, 0, 52, 1226
1177, 0, 52, 1226
1178, 0, 49, 1226
1179, 0, 49, 1226
1180, 0, 49, 1226
1181, 0, 49, 1226
1182, 0, 49, 1226
1183, 0, 49, 1226
1184, 0, 49, 1226
1185, 0, 49, 1226
1186, 0, 49, 1226
1187, 0, 50, 1226
1188, 0, 49, 1226
1189, 0, 49, 1226
1190, 0, 49, 1226
1191, 0, 49, 1226
1192, 0, 49, 1226
1193, 0, 49, 1226
1194, 0, 50, 1226
1195, 0, 51, 1226
1196, 0, 49, 1226
1197, 0, 50, 1226
1198, 0, 50, 1226
1199, 0, 49, 1226
1200, 0, 49, 1226
1201, 0, 49, 1226
1202, 0, 50, 1226
1203, 0, 49, 1226
1204, 0, 49, 1226
1205, 0, 50, 1226
1206, 0, 49, 1226
1207, 0, 49, 1226
1208, 0, 49, 1226
1209, 0, 49, 1226
1210, 0, 49, 1226
1211, 0, 49, 1226
1212, 0, 49, 1226
1213, 0, 49, 1226
1214, 0, 49, 1226
1215, 0, 49, 1226
1216, 0, 50, 1226
1217, 0, 49, 1226
1218, 0, 49, 1226
1219, 0, 49, 1226
1220, 0, 49, 1226
1221, 0, 49, 1226
1222, 0, 49, 1226
1223, 0, 49, 1226
1224, 0, 49, 1226
1225, 0, 49, 1226
1226, 0, 49, 1226
1227, 0, 49, 1226
1228, 0, 49, 1226
1229, 0, 49, 1226
1230, 0, 49, 1226
1231, 0, 49, 1226
1232, 0, 49, 1226
1233, 0, 49, 1226
1234, 0, 49, 1226
1235, 0, 49, 1226
1236, 0, 49, 1226
1237, 0, 49, 1226
1238, 0, 49, 1226
1239, 0, 49, 1226
1240, 0, 49, 1226
1241, 0, 49, 1226
1242, 0, 49, 1226
1243, 0, 49, 1226
1244, 0, 49, 1226
1245, 0, 49, 1226
1246, 0, 49, 1226
1247, 0, 49, 1226
1248, 0, 49, 1226
1249, 0, 49, 1226
1250, 0, 50, 1226
1251, 0, 49, 1226
1252, 0, 49, 1226
1253, 0, 49, 1226
1254, 0, 49, 1226
1255, 0, 51, 1226
1256, 0, 50, 1226
1257, 0, 49, 1226
1258, 0, 49, 1226
1259, 0, 49, 1226
1260, 0, 49, 1226
1261, 0, 49, 1226
1262, 0, 50, 1226
1263, 0, 49, 1226
1264, 0, 49, 1226
1265, 0, 49, 1226
1266, 0, 49, 1226
1267, 0, 49, 1226
1268, 0, 49, 1226
1269, 0, 49, 1226
1270, 0, 49, 1226
1271, 0, 49, 1226
1272, 0, 49, 1226
1273, 0, 50, 1226
1274, 0, 49, 1226
1275, 0, 49, 1226
1276, 0, 51, 1226
1277, 0, 49, 1226
1278, 0, 49, 1226
1279, 0, 49, 1226
1280, 0, 49, 1226
1281, 0, 49, 1226
1282, 0, 49, 1226
1283, 0, 49, 1226
1284, 0, 49, 1226
1285, 0, 49, 1226
1286, 0, 49, 1226
1287, 0, 49, 1226
1288, 0, 49, 1226
1289, 0, 49, 1226
1290, 0, 49, 1226
1291, 0, 49, 1226
1292, 0, 49, 1226
1293, 0, 49, 1226
1294, 0, 49, 1226
1295, 0, 49, 1226
1296, 0, 49, 1226
1297, 0, 49, 1226
1298, 0, 49, 1226
1299, 0, 49, 1226
1300, 0, 49, 1226
1301, 0, 49, 1226
1302, 0, 49, 1226
1303, 0, 49, 1226
1304, 0, 49, 1226
1305, 0, 49, 1226
1306, 0, 49, 1226
1307, 0, 49, 1226
1308, 0, 49, 1226
1309, 0, 49, 1226
1310, 0, 49, 1226
1311, 0, 49, 1226
1312, 0, 49, 1226
1313, 0, 49, 1226
1314, 0, 49, 1226
1315, 0, 49, 1226
1316, 0, 49, 1226
1317, 0, 49, 1226
1318, 0, 49, 1226
1319, 0, 49, 1226
1320, 0, 49, 1226
1321, 0, 49, 1226
1322, 0, 49, 1226
1323, 0, 49, 1226
1324, 0, 49, 1226
1325, 0, 49, 1226
1326, 0, 49, 1226
1327, 0, 49, 1226
1328, 0, 49, 1226
1329, 0, 49, 1226
1330, 0, 49, 1226
1331, 0, 49, 1226
1332, 0, 49, 1226
1333, 0, 49, 1226
1334, 0, 49, 1226
1335, 0, 49, 1226
1336, 0, 49, 1226
1337, 0, 49, 1226
1338, 0, 49, 1226
1339, 0, 49, 1226
1340, 0, 49, 1226
1341, 0, 49, 1226
1342, 0, 49, 1226
1343, 0, 49, 1226
1344, 0, 49, 1226
1345, 0, 49, 1226
1346, 0, 49, 1226
1347, 0, 49, 1226
1348, 0, 49, 1226
1349, 0, 49, 1226
1350, 0, 49, 1226
1351, 0, 49, 1226
1352, 0, 49, 1226
1353, 0, 49, 1226
1354, 0, 49, 1226
1355, 0, 49, 1226
1356, 0, 49, 1226
1357, 0, 49, 1226
1358, 0, 49, 1226
1359, 0, 49, 1226
1360, 0, 49, 1226
1361, 0, 49, 1226
1362, 0, 49, 1226
1363, 0, 49, 1226
1364, 0, 49, 1226
1365, 0, 49, 1226
1366, 0, 49, 1226
1367, 0, 49, 1226
1368, 0, 49, 1226
1369, 0, 49, 1226
1370, 0, 49, 1226
1371, 0, 49, 1226
1372, 0, 49, 1226
1373, 0, 49, 1226
1374, 0, 49, 1226
1375, 0, 49, 1226
1376, 0, 49, 1226
1377, 0, 49, 1226
1378, 0, 49, 1226
1379, 0, 49, 1226
1380, 0, 49, 1226
1381, 0, 49, 1226
1382, 0, 49, 1226
1383, 0, 49, 1226
1384, 0, 49, 1226
1385, 0, 49, 1226
1386, 0, 49, 1226
1387, 0, 49, 1226
1388, 0, 49, 1226
1389, 0, 49, 1226
1390, 0, 49, 1226
1391, 0, 49, 1226
1392, 0, 49, 1226
1393, 0, 49, 1226
1394, 0, 49, 1226
1395, 0, 49, 1226
1396, 0, 49, 1226
1397, 0, 49, 1226
1398, 0, 49, 1226
1399, 0, 49, 1226
1400, 0, 49, 1226
1401, 0, 49, 1226
1402, 0, 49, 1226
1403, 0, 49, 1226
1404, 0, 49, 1226
1405, 0, 49, 1226
1406, 0, 49, 1226
1407, 0, 49, 1226
1408, 0, 49, 1226
1409, 0, 49, 1226
1410, 0, 49, 1226
1411, 0, 49, 1226
1412, 0, 49, 1226
1413, 0, 49, 1226
1414, 0, 49, 1226
1415, 0, 49, 1226
1416, 0, 49, 1226
1417, 0, 49, 1226
1418, 0, 49, 1226
1419, 0, 49, 1226
1420, 0, 49, 1226
1421, 0, 49, 1226
1422, 0, 49, 1226
1423, 0, 49, 1226
1424, 0, 49, 1226
1425, 0, 49, 1226
1426, 0, 49, 1226
1427, 0, 49, 1226
1428, 0, 49, 1226
1429, 0, 49, 1226
1430, 0, 49, 1226
1431, 0, 49, 1226
1432, 0, 49, 1226
1433, 0, 49, 1226
1434, 0, 49, 1226
1435, 0, 49, 1226
1436, 0, 49, 1226
1437, 0, 49, 1226
1438, 0, 49, 1226
1439, 0, 49, 1226
1440, 0, 49, 1226
1441, 0, 49, 1226
1442, 0, 49, 1226
1443, 0, 49, 1226
1444, 0, 49, 1226
1445, 0, 49, 1226
1446, 0, 49, 1226
1447, 0, 49, 1226
1448, 0, 49, 1226
1449, 0, 49, 1226
1450, 0, 49, 1226
1451, 0, 49, 1226
1452, 0, 49, 1226
1453, 0, 49, 1226
1454, 0, 49, 1226
1455, 0, 49, 1226
1456, 0, 49, 1226
1457, 0, 49, 1226
1458, 0, 49, 1226
1459, 0, 49, 1226
1460, 0, 49, 1226
1461, 0, 49, 1226
1462, 0, 49, 1226
1463, 0, 49, 1226
1464, 0, 49, 1226
1465, 0, 49, 1226
1466, 0, 49, 1226
1467, 0, 49, 1226
1468, 0, 49, 1226
1469, 0, 49, 1226
1470, 0, 49, 1226
1471, 0, 49, 1226
1472, 0, 49, 1226
1473, 0, 49, 1226
1474, 0, 49, 1226
1475, 0, 49, 1226
1476, 0, 49, 1226
1477, 0, 49, 1226
1478, 0, 49, 1226
1479, 0, 49, 1226
1480, 0, 49, 1226
1481, 0, 49, 1226
1482, 0, 49, 1226
1483, 0, 49, 1226
1484, 0, 49, 1226
1485, 0, 49, 1226
1486, 0, 49, 1226
1487, 0, 49, 1226
1488, 0, 49, 1226
1489, 0, 49, 1226
1490, 0, 49, 1226
1491, 0, 49, 1226
1492, 0, 49, 1226
1493, 0, 49, 1226
1494, 0, 49, 1226
1495, 0, 49, 1226
1496, 0, 49, 1226
1497, 0, 49, 1226
1498, 0, 49, 1226
1499, 0, 49, 1226
1500, 0, 49, 1226
1501, 0, 49, 1226
1502, 0, 49, 1226
1503, 0, 49, 1226
1504, 0, 49, 1226
1505, 0, 49, 1226
1506, 0, 49, 1226
1507, 0, 49, 1226
1508, 0, 49, 1226
1509, 0, 49, 1226
1510, 0, 49, 1226
1511, 0, 49, 1226
1512, 0, 49, 1226
1513, 0, 49, 1226
1514, 0, 49, 1226
1515, 0, 49, 1226
1516, 0, 49, 1226
1517, 0, 49, 1226
1518, 0, 49, 1226
1519, 0, 49, 1226
1520, 0, 49, 1226
1521, 0, 49, 1226
1522, 0, 49, 1226
1523, 0, 49, 1226
1524, 0, 49, 1226
1525, 0, 49, 1226
1526, 0, 49, 1226
1527, 0, 49, 1226
1528, 0, 49, 1226
1529, 0, 49, 1226
1530, 0, 49, 1226
1531, 0, 49, 1226
1532, 0, 49, 1226
1533, 0, 49, 1226
1534, 0, 49, 1226
1535, 0, 49, 1226
1536, 0, 49, 1226
1537, 0, 49, 1226
1538, 0, 49, 1226
1539, 0, 49, 1226
1540, 0, 49, 1226
1541, 0, 49, 1226
1542, 0, 49, 1226
1543, 0, 49, 1226
1544, 0, 49, 1226
1545, 0, 49, 1226
1546, 0, 49, 1226
1547, 0, 49, 1226
1548, 0, 49, 1226
1549, 0, 49, 1226
1550, 0, 49, 1226
1551, 0, 49, 1226
1552, 0, 49, 1226
1553, 0, 49, 1226
1554, 0, 49, 1226
1555, 0, 49, 1226
1556, 0, 49, 1226
1557, 0, 49, 1226
1558, 0, 49, 1226
1559, 0, 49, 1226
1560, 0, 49, 1226
1561, 0, 49, 1226
1562, 0, 49, 1226
1563, 0, 49, 1226
1564, 0, 49, 1226
1565, 0, 49, 1226
1566, 0, 49, 1226
1567, 0, 49, 1226
1568, 0, 49, 1226
1569, 0, 49, 1226
1570, 0, 49, 1226
1571, 0, 49, 1226
1572, 0, 49, 1226
1573, 0, 49, 1226
1574, 0, 49, 1226
1575, 0, 49, 1226
1576, 0, 49, 1226
1577, 0, 49, 1226
1578, 0, 49, 1226
1579, 0, 49, 1226
1580, 0, 49, 1226
1581, 0, 49, 1226
1582, 0, 49, 1226
1583, 0, 49, 1226
1584, 0, 49, 1226
1585, 0, 49, 1226
1586, 0, 49, 1226
1587, 0, 49, 1226
1588, 0, 49, 1226
1589, 0, 49, 1226
1590, 0, 49, 1226
1591, 0, 49, 1226
1592, 0, 49, 1226
1593, 0, 49, 1226
1594, 0, 49, 1226
1595, 0, 49, 1226
1596, 0, 49, 1226
1597, 0, 49, 1226
1598, 0, 49, 1226
1599, 0, 49, 1226
1600, 0, 49, 1226
1601, 0, 49, 1226
1602, 0, 49, 1226
1603, 0, 49, 1226
1604, 0, 49, 1226
1605, 0, 49, 1226
1606, 0, 49, 1226
1607, 0, 49, 1226
1608, 0, 49, 1226
1609, 0, 49, 1226
1610, 0, 49, 1226
1611, 0, 49, 1226
1612, 0, 49, 1226
1613, 0, 49, 1226
1614, 0, 49, 1226
1615, 0, 49, 1226
1616, 0, 49, 1226
1617, 0, 49, 1226
1618, 0, 49, 1226
1619, 0, 49, 1226
1620, 0, 49, 1226
1621, 0, 49, 1226
1622, 0, 49, 1226
1623, 0, 49, 1226
1624, 0, 49, 1226
1625, 0, 49, 1226
1626, 0, 49, 1226
1627, 0, 49, 1226
1628, 0, 49, 1226
1629, 0, 49, 1226
1630, 0, 49, 1226
1631, 0, 49, 1226
1632, 0, 49, 1226
1633, 0, 49, 1226
1634, 0, 49, 1226
1635, 0, 49, 1226
1636, 0, 49, 1226
1637, 0, 49, 1226
1638, 0, 49, 1226
1639, 0, 49, 1226
1640, 0, 49, 1226
1641, 0, 49, 1226
1642, 0, 49, 1226
1643, 0, 49, 1226
1644, 0, 49, 1226
1645, 0, 49, 1226
1646, 0, 49, 1226
1647, 0, 49, 1226
1648, 0, 49, 1226
1649, 0, 49, 1226
1650, 0, 49, 1226
1651, 0, 49, 1226
1652, 0, 49, 1226
1653, 0, 49, 1226
1654, 0, 49, 1226
1655, 0, 49, 1226
1656, 0, 49, 1226
1657, 0, 49, 1226
1658, 0, 49, 1226
1659, 0, 49, 1226
1660, 0, 49, 1226
1661, 0, 49, 1226
1662, 0, 49, 1226
1663, 0, 49, 1226
1664, 0, 49, 1226
1665, 0, 49, 1226
1666, 0, 49, 1226
1667, 0, 49, 1226
1668, 0, 49, 1226
1669, 0, 49, 1226
1670, 0, 49, 1226
1671, 0, 49, 1226
1672, 0, 49, 1226
1673, 0, 49, 1226
1674, 0, 49, 1226
1675, 0, 49, 1226
1676, 0, 49, 1226
1677, 0, 49, 1226
1678, 0, 49, 1226
1679, 0, 49, 1226
1680, 0, 49, 1226
1681, 0, 49, 1226
1682, 0, 49, 1226
1683, 0, 49, 1226
1684, 0, 49, 1226
1685, 0, 49, 1226
1686, 0, 49, 1226
1687, 0, 49, 1226
1688, 0, 49, 1226
1689, 0, 49, 1226
1690, 0, 49, 1226
1691, 0, 49, 1226
1692, 0, 49, 1226
1693, 0, 49, 1226
1694, 0, 49, 1226
1695, 0, 49, 1226
1696, 0, 49, 1226
1697, 0, 49, 1226
1698, 0, 49, 1226
1699, 0, 49, 1226
1700, 0, 49, 1226
1701, 0, 49, 1226
1702, 0, 49, 1226
1703, 0, 49, 1226
1704, 0, 49, 1226
1705, 0, 49, 1226
1706, 0, 49, 1226
1707, 0, 49, 1226
1708, 0, 49, 1226
1709, 0, 49, 1226
1710, 0, 49, 1226
1711, 0, 49, 1226
1712, 0, 49, 1226
1713, 0, 49, 1226
1714, 0, 49, 1226
1715, 0, 49, 1226
1716, 0, 49, 1226
1717, 0, 49, 1226
1718, 0, 49, 1226
1719, 0, 49, 1226
1720, 0, 49, 1226
1721, 0, 49, 1226
1722, 0, 49, 1226
1723, 0, 49, 1226
1724, 0, 49, 1226
1725, 0, 49, 1226
1726, 0, 49, 1226
1727, 0, 49, 1226
1728, 0, 49, 1226
1729, 0, 49, 1226
1730, 0, 49, 1226
1731, 0, 49, 1226
1732, 0, 49, 1226
1733, 0, 49, 1226
1734, 0, 49, 1226
1735, 0, 49, 1226
1736, 0, 49, 1226
1737, 0, 49, 1226
1738, 0, 49, 1226
1739, 0, 49, 1226
1740, 0, 49, 1226
1741, 0, 49, 1226
1742, 0, 49, 1226
1743, 0, 49, 1226
1744, 0, 49, 1226
1745, 0, 49, 1226
1746, 0, 49, 1226
1747, 0, 49, 1226
1748, 0, 49, 1226
1749, 0, 49, 1226
1750, 0, 49, 1226
1751, 0, 49, 1226
1752, 0, 49, 1226
1753, 0, 49, 1226
1754, 0, 49, 1226
1755, 0, 49, 1226
1756, 0, 49, 1226
1757, 0, 49, 1226
1758, 0, 49, 1226
1759, 0, 49, 1226
1760, 0, 49, 1226
1761, 0, 49, 1226
1762, 0, 49, 1226
1763, 0, 49, 1226
1764, 0, 49, 1226
1765, 0, 49, 1226
1766, 0, 49, 1226
1767, 0, 49, 1226
1768, 0, 49, 1226
1769, 0, 49, 1226
1770, 0, 49, 1226
1771, 0, 49, 1226
1772, 0, 49, 1226
1773, 0, 49, 1226
1774, 0, 49, 1226
1775, 0, 49, 1226
1776, 0, 49, 1226
1777, 0, 49, 1226
1778, 0, 49, 1226
1779, 0, 49, 1226
1780, 0, 49, 1226
1781, 0, 49, 1226
1782, 0, 49, 1226
1783, 0, 49, 1226
1784, 0, 49, 1226
1785, 0, 49, 1226
1786, 0, 49, 1226
1787, 0, 49, 1226
1788, 0, 49, 1226
1789, 0, 49, 1226
1790, 0, 49, 1226
1791, 0, 49, 1226
1792, 0, 49, 1226
1793, 0, 49, 1226
1794, 0, 49, 1226
1795, 0, 49, 1226
1796, 0, 49, 1226
1797, 0, 49, 1226
1798, 0, 49, 1226
1799, 0, 49, 1226
1800, 0, 49, 1226
1801, 0, 49, 1226
1802, 0, 49, 1226
1803, 0, 49, 1226
1804, 0, 49, 1226
1805, 0, 49, 1226
1806, 0, 49, 1226
1807, 0, 49, 1226
1808, 0, 49, 1226
1809, 0, 49, 1226
1810, 0, 49, 1226
1811, 0, 49, 1226
1812, 0, 49, 1226
1813, 0, 49, 1226
1814, 0, 49, 1226
1815, 0, 49, 1226
1816, 0, 49, 1226
1817, 0, 49, 1226
1818, 0, 49, 1226
1819, 0, 49, 1226
1820, 0, 49, 1226
1821, 0, 49, 1226
1822, 0, 49, 1226
1823, 0, 49, 1226
1824, 0, 49, 1226
1825, 0, 49, 1226
1826, 0, 49, 1226
1827, 0, 49, 1226
1828, 0, 49, 1226
1829, 0, 49, 1226
1830, 0, 49, 1226
1831, 0, 49, 1226
1832, 0, 49, 1226
1833, 0, 49, 1226
1834, 0, 49, 1226
1835, 0, 49, 1226
1836, 0, 49, 1226
1837, 0, 49, 1226
1838, 0, 49, 1226
1839, 0, 49, 1226
1840, 0, 49, 1226
1841, 0, 49, 1226
1842, 0, 49, 1226
1843, 0, 49, 1226
1844, 0, 49, 1226
1845, 0, 49, 1226
1846, 0, 49, 1226
1847, 0, 49, 1226
1848, 0, 49, 1226
1849, 0, 49, 1226
1850, 0, 49, 1226
1851, 0, 49, 1226
1852, 0, 49, 1226
1853, 0, 49, 1226
1854, 0, 49, 1226
1855, 0, 49, 1226
1856, 0, 49, 1226
1857, 0, 49, 1226
1858, 0, 49, 1226
1859, 0, 49, 1226
1860, 0, 49, 1226
1861, 0, 49, 1226
1862, 0, 49, 1226
1863, 0, 49, 1226
1864, 0, 49, 1226
1865, 0, 49, 1226
1866, 0, 49, 1226
1867, 0, 49, 1226
1868, 0, 49, 1226
1869, 0, 49, 1226
1870, 0, 49, 1226
1871, 0, 49, 1226
1872, 0, 49, 1226
1873, 0, 49, 1226
1874, 0, 49, 1226
1875, 0, 49, 1226
1876, 0, 49, 1226
1877, 0, 49, 1226
1878, 0, 49, 1226
1879, 0, 49, 1226
1880, 0, 49, 1226
1881, 0, 49, 1226
1882, 0, 49, 1226
1883, 0, 49, 1226
1884, 0, 49, 1226
1885, 0, 49, 1226
1886, 0, 49, 1226
1887, 0, 49, 1226
1888, 0, 49, 1226
1889, 0, 49, 1226
1890, 0, 49, 1226
1891, 0, 49, 1226
1892, 0, 49, 1226
1893, 0, 49, 1226
1894, 0, 49, 1226
1895, 0, 49, 1226
1896, 0, 49, 1226
1897, 0, 49, 1226
1898, 0, 49, 1226
1899, 0, 49, 1226
1900, 0, 49, 1226
1901, 0, 49, 1226
1902, 0, 49, 1226
1903, 0, 49, 1226
1904, 0, 49, 1226
1905, 0, 49, 1226
1906, 0, 49, 1226
1907, 0, 49, 1226
1908, 0, 49, 1226
1909, 0, 49, 1226
1910, 0, 49, 1226
1911, 0, 49, 1226
1912, 0, 49, 1226
1913, 0, 49, 1226
1914, 0, 49, 1226
1915, 0, 49, 1226
1916, 0, 49, 1226
1917, 0, 49, 1226
1918, 0, 49, 1226
1919, 0, 49, 1226
1920, 0, 49, 1226
1921, 0, 49, 1226
1922, 0, 49, 1226
1923, 0, 49, 1226
1924, 0, 49, 1226
1925, 0, 49, 1226
1926, 0, 49, 1226
1927, 0, 49, 1226
1928, 0, 49, 1226
1929, 0, 49, 1226
1930, 0, 49, 1226
1931, 0, 49, 1226
1932, 0, 49, 1226
1933, 0, 49, 1226
1934, 0, 49, 1226
1935, 0, 49, 1226
1936, 0, 49, 1226
1937, 0, 49, 1226
1938, 0, 49, 1226
1939, 0, 49, 1226
1940, 0, 49, 1226
1941, 0, 49, 1226
1942, 0, 49, 1226
1943, 0, 49, 1226
1944, 0, 49, 1226
1945, 0, 49, 1226
1946, 0, 49, 1226
1947, 0, 49, 1226
1948, 0, 49, 1226
1949, 0, 49, 1226
1950, 0, 49, 1226
1951, 0, 49, 1226
1952, 0, 49, 1226
1953, 0, 49, 1226
1954, 0, 49, 1226
1955, 0, 49, 1226
1956, 0, 49, 1226
1957, 0, 49, 1226
1958, 0, 49, 1226
1959, 0, 49, 1226
1960, 0, 49, 1226
1961, 0, 49, 1226
1962, 0, 49, 1226
1963, 0, 49, 1226
1964, 0, 49, 1226
1965, 0, 49, 1226
1966, 0, 49, 1226
1967, 0, 49, 1226
1968, 0, 49, 1226
1969, 0, 49, 1226
1970, 0, 49, 1226
1971, 0, 49, 1226
1972, 0, 49, 1226
1973, 0, 49, 1226
1974, 0, 49, 1226
1975, 0, 49, 1226
1976, 0, 49, 1226
1977, 0, 49, 1226
1978, 0, 49, 1226
1979, 0, 49, 1226
1980, 0, 49, 1226
1981, 0, 49, 1226
1982, 0, 49, 1226
1983, 0, 49, 1226
1984, 0, 49, 1226
1985, 0, 49, 1226
1986, 0, 49, 1226
1987, 0, 49, 1226
1988, 0, 49, 1226
1989, 0, 49, 1226
1990, 0, 49, 1226
1991, 0, 49, 1226
1992, 0, 49, 1226
1993, 0, 49, 1226
1994, 0, 49, 1226
1995, 0, 49, 1226
1996, 0, 49, 1226
1997, 0, 49, 1226
1998, 0, 49, 1226
1999, 0, 49, 1226
2000, 0, 49, 1226
2001, 0, 49, 1226
2002, 0, 49, 1226
2003, 0, 49, 1226
2004, 0, 49, 1226
2005, 0, 49, 1226
2006, 0, 49, 1226
2007, 0, 49, 1226
2008, 0, 49, 1226
2009, 0, 49, 1226
2010, 0, 49, 1226
2011, 0, 49, 1226
2012, 0, 49, 1226
2013, 0, 49, 1226
2014, 0, 49, 1226
2015, 0, 49, 1226
2016, 0, 49, 1226
2017, 0, 49, 1226
2018, 0, 49, 1226
2019, 0, 49, 1226
2020, 0, 49, 1226
2021, 0, 49, 1226
2022, 0, 49, 1226
2023, 0, 49, 1226
2024, 0, 49, 1226
2025, 0, 49, 1226
2026, 0, 49, 1226
2027, 0, 49, 1226
2028, 0, 49, 1226
2029, 0, 49, 1226
2030, 0, 49, 1226
2031, 0, 49, 1226
2032, 0, 49, 1226
2033, 0, 49, 1226
2034, 0, 49, 1226
2035, 0, 49, 1226
2036, 0, 49, 1226
2037, 0, 49, 1226
2038, 0, 49, 1226
2039, 0, 49, 1226
2040, 0, 49, 1226
2041, 0, 49, 1226
2042, 0, 49, 1226
2043, 0, 49, 1226
2044, 0, 49, 1226
2045, 0, 49, 1226
2046, 0, 49, 1226
2047, 0, 49, 1226
2048, 0, 49, 1226
2049, 0, 49, 1226
2050, 0, 49, 1226
2051, 0, 49, 1226
2052, 0, 49, 1226
2053, 0, 49, 1226
2054, 0, 49, 1226
2055, 0, 49, 1226
2056, 0, 49, 1226
2057, 0, 49, 1226
2058, 0, 49, 1226
2059, 0, 49, 1226
2060, 0, 49, 1226
2061, 0, 49, 1226
2062, 0, 49, 1226
2063, 0, 49, 1226
2064, 0, 49, 1226
2065, 0, 49, 1226
2066, 0, 49, 1226
2067, 0, 49, 1226
2068, 0, 49, 1226
2069, 0, 49, 1226
2070, 0, 49, 1226
2071, 0, 49, 1226
2072, 0, 49, 1226
2073, 0, 49, 1226
2074, 0, 49, 1226
2075, 0, 49, 1226
2076, 0, 49, 1226
2077, 0, 49, 1226
2078, 0, 49, 1226
2079, 0, 49, 1226
2080, 0, 49, 1226
2081, 0, 49, 1226
2082, 0, 49, 1226
2083, 0, 49, 1226
2084, 0, 49, 1226
2085, 0, 49, 1226
2086, 0, 49, 1226
2087, 0, 49, 1226
2088, 0, 49, 1226
2089, 0, 49, 1226
2090, 0, 49, 1226
2091, 0, 49, 1226
2092, 0, 49, 1226
2093, 0, 49, 1226
2094, 0, 49, 1226
2095, 0, 49, 1226
2096, 0, 49, 1226
2097, 0, 49, 1226
2098, 0, 49, 1226
2099, 0, 49, 1226
2100, 0, 49, 1226
2101, 0, 49, 1226
2102, 0, 49, 1226
2103, 0, 49, 1226
2104, 0, 49, 1226
2105, 0, 49, 1226
2106, 0, 49, 1226
2107, 0, 49, 1226
2108, 0, 49, 1226
2109, 0, 49, 1226
2110, 0, 49, 1226
2111, 0, 49, 1226
2112, 0, 49, 1226
2113, 0, 49, 1226
2114, 0, 49, 1226
2115, 0, 49, 1226
2116, 0, 49, 1226
2117, 0, 49, 1226
2118, 0, 49, 1226
2119, 0, 49, 1226
2120, 0, 49, 1226
2121, 0, 49, 1226
2122, 0, 49, 1226
2123, 0, 49, 1226
2124, 0, 49, 1226
2125, 0, 49, 1226
2126, 0, 49, 1226
2127, 0, 49, 1226
2128, 0, 49, 1226
2129, 0, 49, 1226
2130, 0, 49, 1226
2131, 0, 49, 1226
2132, 0, 49, 1226
2133, 0, 49, 1226
2134, 0, 49, 1226
2135, 0, 49, 1226
2136, 0, 49, 1226
2137, 0, 49, 1226
2138, 0, 49, 1226
2139, 0, 49, 1226
2140, 0, 49, 1226
2141, 0, 49, 1226
2142, 0, 49, 1226
2143, 0, 49, 1226
2144, 0, 49, 1226
2145, 0, 49, 1226
2146, 0, 49, 1226
2147, 0, 49, 1226
2148, 0, 49, 1226
2149, 0, 49, 1226
2150, 0, 49, 1226
2151, 0, 49, 1226
2152, 0, 49, 1226
2153, 0, 49, 1226
2154, 0, 49, 1226
2155, 0, 49, 1226
2156, 0, 49, 1226
2157, 0, 49, 1226
2158, 0, 49, 1226
2159, 0, 49, 1226
2160, 0, 49, 1226
2161, 0, 49, 1226
2162, 0, 49, 1226
2163, 0, 49, 1226
2164, 0, 49, 1226
2165, 0, 49, 1226
2166, 0, 49, 1226
2167, 0, 49, 1226
2168, 0, 49, 1226
2169, 0, 49, 1226
2170, 0, 49, 1226
2171, 0, 49, 1226
2172, 0, 49, 1226
2173, 0, 49, 1226
2174, 0, 49, 1226
2175, 0, 49, 1226
2176, 0, 49, 1226
2177, 0, 49, 1226
2178, 0, 49, 1226
2179, 0, 49, 1226
2180, 0, 49, 1226
2181, 0, 49, 1226
2182, 0, 49, 1226
2183, 0, 49, 1226
2184, 0, 49, 1226
2185, 0, 49, 1226
2186, 0, 49, 1226
2187, 0, 49, 1226
2188, 0, 49, 1226
2189, 0, 49, 1226
2190, 0, 49, 1226
2191, 0, 49, 1226
2192, 0, 49, 1226
2193, 0, 49, 1226
2194, 0, 49, 1226
2195, 0, 49, 1226
2196, 0, 49, 1226
2197, 0, 49, 1226
2198, 0, 49, 1226
2199, 0, 49, 1226
2200, 0, 49, 1226
2201, 0, 49, 1226
2202, 0, 49, 1226
2203, 0, 49, 1226
2204, 0, 49, 1226
2205, 0, 49, 1226
2206, 0, 49, 1226
2207, 0, 49, 1226
2208, 0, 49, 1226
2209, 0, 49, 1226
2210, 0, 49, 1226
2211, 0, 49, 1226
2212, 0, 49, 1226
2213, 0, 49, 1226
2214, 0, 49, 1226
2215, 0, 49, 1226
2216, 0, 49, 1226
2217, 0, 49, 1226
2218, 0, 49, 1226
2219, 0, 49, 1226
2220, 0, 49, 1226
2221, 0, 49, 1226
2222, 0, 49, 1226
2223, 0, 49, 1226
2224, 0, 49, 1226
2225, 0, 49, 1226
2226, 0, 49, 1226
2227, 0, 49, 1226
2228, 0, 49, 1226
2229, 0, 49, 1226
2230, 0, 49, 1226
2231, 0, 49, 1226
2232, 0, 49, 1226
2233, 0, 49, 1226
2234, 0, 49, 1226
2235, 0, 49, 1226
2236, 0, 49, 1226
2237, 0, 49, 1226
2238, 0, 49, 1226
2239, 0, 49, 1226
2240, 0, 49, 1226
2241, 0, 49, 1226
2242, 0, 49, 1226
2243, 0, 49, 1226
2244, 0, 49, 1226
2245, 0, 49, 1226
2246, 0, 49, 1226
2247, 0, 49, 1226
2248, 0, 49, 1226
2249, 0, 49, 1226
2250, 0, 49, 1226
2251, 0, 49, 1226
2252, 0, 49, 1226
2253, 0, 49, 1226
2254, 0, 49, 1226
2255, 0, 49, 1226
2256, 0, 49, 1226
2257, 0, 49, 1226
2258, 0, 49, 1226
2259, 0, 49, 1226
2260, 0, 49, 1226
2261, 0, 49, 1226
2262, 0, 49, 1226
2263, 0, 49, 1226
2264, 0, 49, 1226
2265, 0, 49, 1226
2266, 0, 49, 1226
2267, 0, 49, 1226
2268, 0, 49, 1226
2269, 0, 49, 1226
2270, 0, 49, 1226
2271, 0, 49, 1226
2272, 0, 49, 1226
2273, 0, 49, 1226
2274, 0, 49, 1226
2275, 0, 49, 1226
2276, 0, 49, 1226
2277, 0, 49, 1226
2278, 0, 49, 1226
2279, 0, 49, 1226
2280, 0, 49, 1226
2281, 0, 49, 1226
2282, 0, 49, 1226
2283, 0, 49, 1226
2284, 0, 49, 1226
2285, 0, 49, 1226
2286, 0, 49, 1226
2287, 0, 49, 1226
2288, 0, 49, 1226
2289, 0, 49, 1226
2290, 0, 49, 1226
2291, 0, 49, 1226
2292, 0, 49, 1226
2293, 0, 49, 1226
2294, 0, 49, 1226
2295, 0, 49, 1226
2296, 0, 49, 1226
2297, 0, 49, 1226
2298, 0, 49, 1226
2299, 0, 49, 1226
2300, 0, 49, 1226
2301, 0, 49, 1226
2302, 0, 49, 1226
2303, 0, 49, 1226
2304, 0, 49, 1226
2305, 0, 49, 1226
2306, 0, 49, 1226
2307, 0, 49, 1226
2308, 0, 49, 1226
2309, 0, 49, 1226
2310, 0, 49, 1226
2311, 0, 49, 1226
2312, 0, 49, 1226
2313, 0, 49, 1226
2314, 0, 49, 1226
2315, 0, 49, 1226
2316, 0, 49, 1226
2317, 0, 49, 1226
2318, 0, 49, 1226
2319, 0, 49, 1226
2320, 0, 49, 1226
2321, 0, 49, 1226
2322, 0, 49, 1226
2323, 0, 49, 1226
2324, 0, 49, 1226
2325, 0, 49, 1226
2326, 0, 49, 1226
2327, 0, 49, 1226
2328, 0, 49, 1226
2329, 0, 49, 1226
2330, 0, 49, 1226
2331, 0, 49, 1226
2332, 0, 49, 1226
2333, 0, 49, 1226
2334, 0, 49, 1226
2335, 0, 49, 1226
2336, 0, 49, 1226
2337, 0, 49, 1226
2338, 0, 49, 1226
2339, 0, 49, 1226
2340, 0, 49, 1226
2341, 0, 49, 1226
2342, 0, 49, 1226
2343, 0, 49, 1226
2344, 0, 49, 1226
2345, 0, 49, 1226
2346, 0, 49, 1226
2347, 0, 49, 1226
2348, 0, 49, 1226
2349, 0, 49, 1226
2350, 0, 49, 1226
2351, 0, 49, 1226
2352, 0, 49, 1226
2353, 0, 49, 1226
2354, 0, 49, 1226
2355, 0, 49, 1226
2356, 0, 49, 1226
2357, 0, 49, 1226
2358, 0, 49, 1226
2359, 0, 49, 1226
2360, 0, 49, 1226
2361, 0, 49, 1226
2362, 0, 49, 1226
2363, 0, 49, 1226
2364, 0, 49, 1226
2365, 0, 49, 1226
2366, 0, 49, 1226
2367, 0, 49, 1226
2368, 0, 49, 1226
2369, 0, 49, 1226
2370, 0, 49, 1226
2371, 0, 49, 1226
2372, 0, 49, 1226
2373, 0, 49, 1226
2374, 0, 49, 1226
2375, 0, 49, 1226
2376, 0, 49, 1226
2377, 0, 49, 1226
2378, 0, 49, 1226
2379, 0, 49, 1226
2380, 0, 49, 1226
2381, 0, 49, 1226
2382, 0, 49, 1226
2383, 0, 49, 1226
2384, 0, 49, 1226
2385, 0, 49, 1226
2386, 0, 49, 1226
2387, 0, 49, 1226
2388, 0, 49, 1226
2389, 0, 49, 1226
2390, 0, 49, 1226
2391, 0, 49, 1226
2392, 0, 49, 1226
2393, 0, 49, 1226
2394, 0, 49, 1226
2395, 0, 49, 1226
2396, 0, 49, 1226
2397, 0, 49, 1226
2398, 0, 49, 1226
2399, 0, 49, 1226
2400, 0, 49, 1226
2401, 0, 49, 1226
2402, 0, 49, 1226
2403, 0, 49, 1226
2404, 0, 49, 1226
2405, 0, 49, 1226
2406, 0, 49, 1226
2407, 0, 49, 1226
2408, 0, 49, 1226
2409, 0, 49, 1226
2410, 0, 49, 1226
2411, 0, 49, 1226
2412, 0, 49, 1226
2413, 0, 49, 1226
2414, 0, 49, 1226
2415, 0, 49, 1226
2416, 0, 49, 1226
2417, 0, 49, 1226
2418, 0, 49, 1226
2419, 0, 49, 1226
2420, 0, 49, 1226
2421, 0, 49, 1226
2422, 0, 49, 1226
2423, 0, 49, 1226
2424, 0, 49, 1226
2425, 0, 49, 1226
2426, 0, 49, 1226
2427, 0, 49, 1226
2428, 0, 49, 1226
2429, 0, 49, 1226
2430, 0, 49, 1226
2431, 0, 49, 1226
2432, 0, 49, 1226
2433, 0, 49, 1226
2434, 0, 49, 1226
2435, 0, 49, 1226
2436, 0, 49, 1226
2437, 0, 49, 1226
2438, 0, 49, 1226
2439, 0, 49, 1226
2440, 0, 49, 1226
2441, 0, 49, 1226
2442, 0, 49, 1226
2443, 0, 49, 1226
2444, 0, 49, 1226
2445, 0, 49, 1226
2446, 0, 49, 1226
2447, 0, 49, 1226
2448, 0, 49, 1226
2449, 0, 49, 1226
2450, 0, 49, 1226
2451, 0, 49, 1226
2452, 0, 49, 1226
2453, 0, 49, 1226
2454, 0, 49, 1226
2455, 0, 49, 1226
2456, 0, 49, 1226
2457, 0, 49, 1226
2458, 0, 49, 1226
2459, 0, 49, 1226
2460, 0, 49, 1226
2461, 0, 49, 1226
2462, 0, 49, 1226
2463, 0, 49, 1226
2464, 0, 49, 1226
2465, 0, 49, 1226
2466, 0, 49, 1226
2467, 0, 49, 1226
2468, 0, 49, 1226
2469, 0, 49, 1226
2470, 0, 49, 1226
2471, 0, 49, 1226
2472, 0, 49, 1226
2473, 0, 49, 1226
2474, 0, 49, 1226
2475, 0, 49, 1226
2476, 0, 49, 1226
2477, 0, 49, 1226
2478, 0, 49, 1226
2479, 0, 49, 1226
2480, 0, 49, 1226
2481, 0, 49, 1226
2482, 0, 49, 1226
2483, 0, 49, 1226
2484, 0, 49, 1226
2485, 0, 49, 1226
2486, 0, 49, 1226
2487, 0, 49, 1226
2488, 0, 49, 1226
2489, 0, 49, 1226
2490, 0, 49, 1226
2491, 0, 49, 1226
2492, 0, 49, 1226
2493, 0, 49, 1226
2494, 0, 49, 1226
2495, 0, 49, 1226
2496, 0, 49, 1226
2497, 0, 49, 1226
2498, 0, 49, 1226
2499, 0, 49, 1226
2500, 0, 49, 1226
2501, 0, 49, 1226
2502, 0, 49, 1226
2503, 0, 49, 1226
2504, 0, 49, 1226
2505, 0, 49, 1226
2506, 0, 49, 1226
2507, 0, 49, 1226
2508, 0, 49, 1226
2509, 0, 49, 1226
2510, 0, 49, 1226
2511, 0, 49, 1226
2512, 0, 49, 1226
2513, 0, 49, 1226
2514, 0, 49, 1226
2515, 0, 49, 1226
2516, 0, 49, 1226
2517, 0, 49, 1226
2518, 0, 49, 1226
2519, 0, 49, 1226
2520, 0, 49, 1226
2521, 0, 49, 1226
2522, 0, 49, 1226
2523, 0, 49, 1226
2524, 0, 49, 1226
2525, 0, 49, 1226
2526, 0, 49, 1226
2527, 0, 49, 1226
2528, 0, 49, 1226
2529, 0, 49, 1226
2530, 0, 49, 1226
2531, 0, 49, 1226
2532, 0, 49, 1226
2533, 0, 49, 1226
2534, 0, 49, 1226
2535, 0, 49, 1226
2536, 0, 49, 1226
2537, 0, 49, 1226
2538, 0, 49, 1226
2539, 0, 49, 1226
2540, 0, 49, 1226
2541, 0, 49, 1226
2542, 0, 49, 1226
2543, 0, 49, 1226
2544, 0, 49, 1226
2545, 0, 49, 1226
2546, 0, 49, 1226
2547, 0, 49, 1226
2548, 0, 49, 1226
2549, 0, 49, 1226
2550, 0, 49, 1226
2551, 0, 49, 1226
2552, 0, 49, 1226
2553, 0, 49, 1226
2554, 0, 49, 1226
2555, 0, 49, 1226
2556, 0, 49, 1226
2557, 0, 49, 1226
2558, 0, 49, 1226
2559, 0, 49, 1226
2560, 0, 49, 1226
2561, 0, 49, 1226
2562, 0, 49, 1226
2563, 0, 49, 1226
2564, 0, 49, 1226
2565, 0, 49, 1226
2566, 0, 49, 1226
2567, 0, 49, 1226
2568, 0, 49, 1226
2569, 0, 49, 1226
2570, 0, 49, 1226
2571, 0, 49, 1226
2572, 0, 49, 1226
2573, 0, 49, 1226
2574, 0, 49, 1226
2575, 0, 49, 1226
2576, 0, 49, 1226
2577, 0, 49, 1226
2578, 0, 49, 1226
2579, 0, 49, 1226
2580, 0, 49, 1226
2581, 0, 49, 1226
2582, 0, 49, 1226
2583, 0, 49, 1226
2584, 0, 49, 1226
2585, 0, 49, 1226
2586, 0, 49, 1226
2587, 0, 49, 1226
2588, 0, 49, 1226
2589, 0, 49, 1226
2590, 0, 49, 1226
2591, 0, 49, 1226
2592, 0, 49, 1226
2593, 0, 49, 1226
2594, 0, 49, 1226
2595, 0, 49, 1226
2596, 0, 49, 1226
2597, 0, 49, 1226
2598, 0, 49, 1226
2599, 0, 49, 1226
2600, 0, 49, 1226
2601, 0, 49, 1226
2602, 0, 49, 1226
2603, 0, 49, 1226
2604, 0, 49, 1226
2605, 0, 49, 1226
2606, 0, 49, 1226
2607, 0, 49, 1226
2608, 0, 49, 1226
2609, 0, 49, 1226
2610, 0, 49, 1226
2611, 0, 49, 1226
2612, 0, 49, 1226
2613, 0, 49, 1226
2614, 0, 49, 1226
2615, 0, 49, 1226
2616, 0, 49, 1226
2617, 0, 49, 1226
2618, 0, 49, 1226
2619, 0, 49, 1226
2620, 0, 49, 1226
2621, 0, 49, 1226
2622, 0, 49, 1226
2623, 0, 49, 1226
2624, 0, 49, 1226
2625, 0, 49, 1226
2626, 0, 49, 1226
2627, 0, 49, 1226
2628, 0, 49, 1226
2629, 0, 49, 1226
2630, 0, 49, 1226
2631, 0, 49, 1226
2632, 0, 49, 1226
2633, 0, 49, 1226
2634, 0, 49, 1226
2635, 0, 49, 1226
2636, 0, 49, 1226
2637, 0, 49, 1226
2638, 0, 49, 1226
2639, 0, 49, 1226
2640, 0, 49, 1226
2641, 0, 49, 1226
2642, 0, 49, 1226
2643, 0, 49, 1226
2644, 0, 49, 1226
2645, 0, 49, 1226
2646, 0, 49, 1226
2647, 0, 49, 1226
2648, 0, 49, 1226
2649, 0, 49, 1226
2650, 0, 49, 1226
2651, 0, 49, 1226
2652, 0, 49, 1226
2653, 0, 49, 1226
2654, 0, 49, 1226
2655, 0, 49, 1226
2656, 0, 49, 1226
2657, 0, 49, 1226
2658, 0, 49, 1226
2659, 0, 49, 1226
2660, 0, 49, 1226
2661, 0, 49, 1226
2662, 0, 49, 1226
2663, 0, 49, 1226
2664, 0, 49, 1226
2665, 0, 49, 1226
2666, 0, 49, 1226
2667, 0, 49, 1226
2668, 0, 49, 1226
2669, 0, 49, 1226
2670, 0, 49, 1226
2671, 0, 49, 1226
2672, 0, 49, 1226
2673, 0, 49, 1226
2674, 0, 49, 1226
2675, 0, 49, 1226
2676, 0, 49, 1226
2677, 0, 49, 1226
2678, 0, 49, 1226
2679, 0, 49, 1226
2680, 0, 49, 1226
2681, 0, 49, 1226
2682, 0, 49, 1226
2683, 0, 49, 1226
2684, 0, 49, 1226
2685, 0, 49, 1226
2686, 0, 49, 1226
2687, 0, 49, 1226
2688, 0, 49, 1226
2689, 0, 49, 1226
2690, 0, 49, 1226
2691, 0, 49, 1226
2692, 0, 49, 1226
2693, 0, 49, 1226
2694, 0, 49, 1226
2695, 0, 49, 1226
2696, 0, 49, 1226
2697, 0, 49, 1226
2698, 0, 49, 1226
2699, 0, 49, 1226
2700, 0, 49, 1226
2701, 0, 49, 1226
2702, 0, 49, 1226
2703, 0, 49, 1226
2704, 0, 49, 1226
2705, 0, 49, 1226
2706, 0, 49, 1226
2707, 0, 49, 1226
2708, 0, 49, 1226
2709, 0, 49, 1226
2710, 0, 49, 1226
2711, 0, 49, 1226
2712, 0, 49, 1226
2713, 0, 49, 1226
2714, 0, 49, 1226
2715, 0, 49, 1226
2716, 0, 49, 1226
2717, 0, 49, 1226
2718, 0, 49, 1226
2719, 0, 49, 1226
2720, 0, 49, 1226
2721, 0, 49, 1226
2722, 0, 49, 1226
2723, 0, 49, 1226
2724, 0, 49, 1226
2725, 0, 49, 1226
2726, 0, 49, 1226
2727, 0, 49, 1226
2728, 0, 49, 1226
2729, 0, 49, 1226
2730, 0, 49, 1226
2731, 0, 49, 1226
2732, 0, 49, 1226
2733, 0, 49, 1226
2734, 0, 49, 1226
2735, 0, 49, 1226
2736, 0, 49, 1226
2737, 0, 49, 1226
2738, 0, 49, 1226
2739, 0, 49, 1226
2740, 0, 49, 1226
2741, 0, 49, 1226
2742, 0, 49, 1226
2743, 0, 49, 1226
2744, 0, 49, 1226
2745, 0, 49, 1226
2746, 0, 49, 1226
2747, 0, 49, 1226
2748, 0, 49, 1226
2749, 0, 49, 1226
2750, 0, 49, 1226
2751, 0, 49, 1226
2752, 0, 49, 1226
2753, 0, 49, 1226
2754, 0, 49, 1226
2755, 0, 49, 1226
2756, 0, 49, 1226
2757, 0, 49, 1226
2758, 0, 49, 1226
2759, 0, 49, 1226
2760, 0, 49, 1226
2761, 0, 49, 1226
2762, 0, 49, 1226
2763, 0, 49, 1226
2764, 0, 49, 1226
2765, 0, 49, 1226
2766, 0, 49, 1226
2767, 0, 49, 1226
2768, 0, 49, 1226
2769, 0, 49, 1226
2770, 0, 49, 1226
2771, 0, 49, 1226
2772, 0, 49, 1226
2773, 0, 49, 1226
2774, 0, 49, 1226
2775, 0, 49, 1226
2776, 0, 49, 1226
2777, 0, 49, 1226
2778, 0, 49, 1226
2779, 0, 49, 1226
2780, 0, 49, 1226
2781, 0, 49, 1226
2782, 0, 49, 1226
2783, 0, 49, 1226
2784, 0, 49, 1226
2785, 0, 49, 1226
2786, 0, 49, 1226
2787, 0, 49, 1226
2788, 0, 49, 1226
2789, 0, 49, 1226
2790, 0, 49, 1226
2791, 0, 49, 1226
2792, 0, 49, 1226
2793, 0, 49, 1226
2794, 0, 49, 1226
2795, 0, 49, 1226
2796, 0, 49, 1226
2797, 0, 49, 1226
2798, 0, 49, 1226
2799, 0, 49, 1226
2800, 0, 49, 1226
2801, 0, 49, 1226
2802, 0, 49, 1226
2803, 0, 49, 1226
2804, 0, 49, 1226
2805, 0, 49, 1226
2806, 0, 49, 1226
2807, 0, 49, 1226
2808, 0, 49, 1226
2809, 0, 49, 1226
2810, 0, 49, 1226
2811, 0, 49, 1226
2812, 0, 49, 1226
2813, 0, 49, 1226
2814, 0, 49, 1226
2815, 0, 49, 1226
2816, 0, 49, 1226
2817, 0, 49, 1226
2818, 0, 49, 1226
2819, 0, 49, 1226
2820, 0, 49, 1226
2821, 0, 49, 1226
2822, 0, 49, 1226
2823, 0, 49, 1226
2824, 0, 49, 1226
2825, 0, 49, 1226
2826, 0, 49, 1226
2827, 0, 49, 1226
2828, 0, 49, 1226
2829, 0, 49, 1226
2830, 0, 49, 1226
2831, 0, 49, 1226
2832, 0, 49, 1226
2833, 0, 49, 1226
2834, 0, 49, 1226
2835, 0, 49, 1226
2836, 0, 49, 1226
2837, 0, 49, 1226
2838, 0, 49, 1226
2839, 0, 49, 1226
2840, 0, 49, 1226
2841, 0, 49, 1226
2842, 0, 49, 1226
2843, 0, 49, 1226
2844, 0, 49, 1226
2845, 0, 49, 1226
2846, 0, 49, 1226
2847, 0, 49, 1226
2848, 0, 49, 1226
2849, 0, 49, 1226
2850, 0, 49, 1226
2851, 0, 49, 1226
2852, 0, 49, 1226
2853, 0, 49, 1226
2854, 0, 49, 1226
2855, 0, 49, 1226
2856, 0, 49, 1226
2857, 0, 49, 1226
2858, 0, 49, 1226
2859, 0, 49, 1226
2860, 0, 49, 1226
2861, 0, 49, 1226
2862, 0, 49, 1226
2863, 0, 49, 1226
2864, 0, 49, 1226
2865, 0, 49, 1226
2866, 0, 49, 1226
2867, 0, 49, 1226
2868, 0, 49, 1226
2869, 0, 49, 1226
2870, 0, 49, 1226
2871, 0, 49, 1226
2872, 0, 49, 1226
2873, 0, 49, 1226
2874, 0, 49, 1226
2875, 0, 49, 1226
2876, 0, 49, 1226
2877, 0, 49, 1226
2878, 0, 49, 1226
2879, 0, 49, 1226
2880, 0, 49, 1226
2881, 0, 49, 1226
2882, 0, 49, 1226
2883, 0, 49, 1226
2884, 0, 49, 1226
2885, 0, 49, 1226
2886, 0, 49, 1226
2887, 0, 49, 1226
2888, 0, 49, 1226
2889, 0, 49, 1226
2890, 0, 49, 1226
2891, 0, 49, 1226
2892, 0, 49, 1226
2893, 0, 49, 1226
2894, 0, 49, 1226
2895, 0, 49, 1226
2896, 0, 49, 1226
2897, 0, 49, 1226
2898, 0, 49, 1226
2899, 0, 49, 1226
2900, 0, 49, 1226
2901, 0, 49, 1226
2902, 0, 49, 1226
2903, 0, 49, 1226
2904, 0, 49, 1226
2905, 0, 49, 1226
2906, 0, 49, 1226
2907, 0, 49, 1226
2908, 0, 49, 1226
2909, 0, 49, 1226
2910, 0, 49, 1226
2911, 0, 49, 1226
2912, 0, 49, 1226
2913, 0, 49, 1226
2914, 0, 49, 1226
2915, 0, 49, 1226
2916, 0, 49, 1226
2917, 0, 49, 1226
2918, 0, 49, 1226
2919, 0, 49, 1226
2920, 0, 49, 1226
2921, 0, 49, 1226
2922, 0, 49, 1226
2923, 0, 49, 1226
2924, 0, 49, 1226
2925, 0, 49, 1226
2926, 0, 49, 1226
2927, 0, 49, 1226
2928, 0, 49, 1226
2929, 0, 49, 1226
2930, 0, 49, 1226
2931, 0, 49, 1226
2932, 0, 49, 1226
2933, 0, 49, 1226
2934, 0, 49, 1226
2935, 0, 49, 1226
2936, 0, 49, 1226
2937, 0, 49, 1226
2938, 0, 49, 1226
2939, 0, 49, 1226
2940, 0, 49, 1226
2941, 0, 49, 1226
2942, 0, 49, 1226
2943, 0, 49, 1226
2944, 0, 49, 1226
2945, 0, 49, 1226
2946, 0, 49, 1226
2947, 0, 49, 1226
2948, 0, 49, 1226
2949, 0, 49, 1226
2950, 0, 49, 1226
2951, 0, 49, 1226
2952, 0, 49, 1226
2953, 0, 49, 1226
2954, 0, 49, 1226
2955, 0, 49, 1226
2956, 0, 49, 1226
2957, 0, 49, 1226
2958, 0, 49, 1226
2959, 0, 49, 1226
2960, 0, 49, 1226
2961, 0, 49, 1226
2962, 0, 49, 1226
2963, 0, 49, 1226
2964, 0, 49, 1226
2965, 0, 49, 1226
2966, 0, 49, 1226
2967, 0, 49, 1226
2968, 0, 49, 1226
2969, 0, 49, 1226
2970, 0, 49, 1226
2971, 0, 49, 1226
2972, 0, 49, 1226
2973, 0, 49, 1226
2974, 0, 49, 1226
2975, 0, 49, 1226
2976, 0, 49, 1226
2977, 0, 49, 1226
2978, 0, 49, 1226
2979, 0, 49, 1226
2980, 0, 49, 1226
2981, 0, 49, 1226
2982, 0, 49, 1226
2983, 0, 49, 1226
2984, 0, 49, 1226
2985, 0, 49, 1226
2986, 0, 49, 1226
2987, 0, 49, 1226
2988, 0, 49, 1226
2989, 0, 49, 1226
2990, 0, 49, 1226
2991, 0, 49, 1226
2992, 0, 49, 1226
2993, 0, 49, 1226
2994, 0, 49, 1226
2995, 0, 49, 1226
2996, 0, 49, 1226
2997, 0, 49, 1226
2998, 0, 49, 1226
2999, 0, 49, 1226
3000, 0, 49, 1226
3001, 0, 49, 1226
3002, 0, 49, 1226
3003, 0, 49, 1226
3004, 0, 49, 1226
3005, 0, 49, 1226
3006, 0, 49, 1226
3007, 0, 49, 1226
3008, 0, 49, 1226
3009, 0, 49, 1226
3010, 0, 49, 1226
3011, 0, 49, 1226
3012, 0, 49, 1226
3013, 0, 49, 1226
3014, 0, 49, 1226
3015, 0, 49, 1226
3016, 0, 49, 1226
3017, 0, 49, 1226
3018, 0, 49, 1226
3019, 0, 49, 1226
3020, 0, 49, 1226
3021, 0, 49, 1226
3022, 0, 49, 1226
3023, 0, 49, 1226
3024, 0, 49, 1226
3025, 0, 49, 1226
3026, 0, 49, 1226
3027, 0, 49, 1226
3028, 0, 49, 1226
3029, 0, 49, 1226
3030, 0, 49, 1226
3031, 0, 49, 1226
3032, 0, 49, 1226
3033, 0, 49, 1226
3034, 0, 49, 1226
3035, 0, 49, 1226
3036, 0, 49, 1226
3037, 0, 49, 1226
3038, 0, 49, 1226
3039, 0, 49, 1226
3040, 0, 49, 1226
3041, 0, 49, 1226
3042, 0, 49, 1226
3043, 0, 49, 1226
3044, 0, 49, 1226
3045, 0, 49, 1226
3046, 0, 49, 1226
3047, 0, 49, 1226
3048, 0, 49, 1226
3049, 0, 49, 1226
3050, 0, 49, 1226
3051, 0, 49, 1226
3052, 0, 49, 1226
3053, 0, 49, 1226
3054, 0, 49, 1226
3055, 0, 49, 1226
3056, 0, 49, 1226
3057, 0, 49, 1226
3058, 0, 49, 1226
3059, 0, 49, 1226
3060, 0, 49, 1226
3061, 0, 49, 1226
3062, 0, 49, 1226
3063, 0, 49, 1226
3064, 0, 49, 1226
3065, 0, 49, 1226
3066, 0, 49, 1226
3067, 0, 49, 1226
3068, 0, 49, 1226
3069, 0, 49, 1226
3070, 0, 49, 1226
3071, 0, 49, 1226
3072, 0, 49, 1226
3073, 0, 49, 1226
3074, 0, 49, 1226
3075, 0, 49, 1226
3076, 0, 49, 1226
3077, 0, 49, 1226
3078, 0, 49, 1226
3079, 0, 49, 1226
3080, 0, 49, 1226
3081, 0, 49, 1226
3082, 0, 49, 1226
3083, 0, 49, 1226
3084, 0, 49, 1226
3085, 0, 49, 1226
3086, 0, 49, 1226
3087, 0, 49, 1226
3088, 0, 49, 1226
3089, 0, 49, 1226
3090, 0, 49, 1226
3091, 0, 49, 1226
3092, 0, 49, 1226
3093, 0, 49, 1226
3094, 0, 49, 1226
3095, 0, 49, 1226
3096, 0, 49, 1226
3097, 0, 49, 1226
3098, 0, 49, 1226
3099, 0, 49, 1226
3100, 0, 49, 1226
3101, 0, 49, 1226
3102, 0, 49, 1226
3103, 0, 49, 1226
3104, 0, 49, 1226
3105, 0, 49, 1226
3106, 0, 49, 1226
3107, 0, 49, 1226
3108, 0, 49, 1226
3109, 0, 49, 1226
3110, 0, 49, 1226
3111, 0, 49, 1226
3112, 0, 49, 1226
3113, 0, 49, 1226
3114, 0, 49, 1226
3115, 0, 49, 1226
3116, 0, 49, 1226
3117, 0, 49, 1226
3118, 0, 49, 1226
3119, 0, 49, 1226
3120, 0, 49, 1226
3121, 0, 49, 1226
3122, 0, 49, 1226
3123, 0, 49, 1226
3124, 0, 49, 1226
3125, 0, 49, 1226
3126, 0, 49, 1226
3127, 0, 49, 1226
3128, 0, 49, 1226
3129, 0, 49, 1226
3130, 0, 49, 1226
3131, 0, 49, 1226
3132, 0, 49, 1226
3133, 0, 49, 1226
3134, 0, 49, 1226
3135, 0, 49, 1226
3136, 0, 49, 1226
3137, 0, 49, 1226
3138, 0, 49, 1226
3139, 0, 49, 1226
3140, 0, 49, 1226
3141, 0, 49, 1226
3142, 0, 49, 1226
3143, 0, 49, 1226
3144, 0, 49, 1226
3145, 0, 49, 1226
3146, 0, 49, 1226
3147, 0, 49, 1226
3148, 0, 49, 1226
3149, 0, 49, 1226
3150, 0, 49, 1226
3151, 0, 49, 1226
3152, 0, 49, 1226
3153, 0, 49, 1226
3154, 0, 49, 1226
3155, 0, 49, 1226
3156, 0, 49, 1226
3157, 0, 49, 1226
3158, 0, 49, 1226
3159, 0, 49, 1226
3160, 0, 49, 1226
3161, 0, 49, 1226
3162, 0, 49, 1226
3163, 0, 49, 1226
3164, 0, 49, 1226
3165, 0, 49, 1226
3166, 0, 49, 1226
3167, 0, 49, 1226
3168, 0, 49, 1226
3169, 0, 49, 1226
3170, 0, 49, 1226
3171, 0, 49, 1226
3172, 0, 49, 1226
3173, 0, 49, 1226
3174, 0, 49, 1226
3175, 0, 49, 1226
3176, 0, 49, 1226
3177, 0, 49, 1226
3178, 0, 49, 1226
3179, 0, 49, 1226
3180, 0, 49, 1226
3181, 0, 49, 1226
3182, 0, 49, 1226
3183, 0, 49, 1226
3184, 0, 49, 1226
3185, 0, 49, 1226
3186, 0, 49, 1226
3187, 0, 49, 1226
3188, 0, 49, 1226
3189, 0, 49, 1226
3190, 0, 49, 1226
3191, 0, 49, 1226
3192, 0, 49, 1226
3193, 0, 49, 1226
3194, 0, 49, 1226
3195, 0, 49, 1226
3196, 0, 49, 1226
3197, 0, 49, 1226
3198, 0, 49, 1226
3199, 0, 49, 1226
3200, 0, 49, 1226
3201, 0, 49, 1226
3202, 0, 49, 1226
3203, 0, 49, 1226
3204, 0, 49, 1226
3205, 0, 49, 1226
3206, 0, 49, 1226
3207, 0, 49, 1226
3208, 0, 49, 1226
3209, 0, 49, 1226
3210, 0, 49, 1226
3211, 0, 49, 1226
3212, 0, 49, 1226
3213, 0, 49, 1226
3214, 0, 49, 1226
3215, 0, 49, 1226
3216, 0, 49, 1226
3217, 0, 49, 1226
3218, 0, 49, 1226
3219, 0, 49, 1226
3220, 0, 49, 1226
3221, 0, 49, 1226
3222, 0, 49, 1226
3223, 0, 49, 1226
3224, 0, 49, 1226
3225, 0, 49, 1226
3226, 0, 49, 1226
3227, 0, 49, 1226
3228, 0, 49, 1226
3229, 0, 49, 1226
3230, 0, 49, 1226
3231, 0, 49, 1226
3232, 0, 49, 1226
3233, 0, 49, 1226
3234, 0, 49, 1226
3235, 0, 49, 1226
3236, 0, 49, 1226
3237, 0, 49, 1226
3238, 0, 49, 1226
3239, 0, 49, 1226
3240, 0, 49, 1226
3241, 0, 49, 1226
3242, 0, 49, 1226
3243, 0, 49, 1226
3244, 0, 49, 1226
3245, 0, 49, 1226
3246, 0, 49, 1226
3247, 0, 49, 1226
3248, 0, 49, 1226
3249, 0, 49, 1226
3250, 0, 49, 1226
3251, 0, 49, 1226
3252, 0, 49, 1226
3253, 0, 49, 1226
3254, 0, 49, 1226
3255, 0, 49, 1226
3256, 0, 49, 1226
3257, 0, 49, 1226
3258, 0, 49, 1226
3259, 0, 49, 1226
3260, 0, 49, 1226
3261, 0, 49, 1226
3262, 0, 49, 1226
3263, 0, 49, 1226
3264, 0, 49, 1226
3265, 0, 49, 1226
3266, 0, 49, 1226
3267, 0, 49, 1226
3268, 0, 49, 1226
3269, 0, 49, 1226
3270, 0, 49, 1226
3271, 0, 49, 1226
3272, 0, 49, 1226
3273, 0, 49, 1226
3274, 0, 49, 1226
3275, 0, 49, 1226
3276, 0, 49, 1226
3277, 0, 49, 1226
3278, 0, 49, 1226
3279, 0, 49, 1226
3280, 0, 49, 1226
3281, 0, 49, 1226
3282, 0, 49, 1226
3283, 0, 49, 1226
3284, 0, 49, 1226
3285, 0, 49, 1226
3286, 0, 49, 1226
3287, 0, 49, 1226
3288, 0, 49, 1226
3289, 0, 49, 1226
3290, 0, 49, 1226
3291, 0, 49, 1226
3292, 0, 49, 1226
3293, 0, 49, 1226
3294, 0, 49, 1226
3295, 0, 49, 1226
3296, 0, 49, 1226
3297, 0, 49, 1226
3298, 0, 49, 1226
3299, 0, 49, 1226
3300, 0, 49, 1226
3301, 0, 49, 1226
3302, 0, 49, 1226
3303, 0, 49, 1226
3304, 0, 49, 1226
3305, 0, 49, 1226
3306, 0, 49, 1226
3307, 0, 49, 1226
3308, 0, 49, 1226
3309, 0, 49, 1226
3310, 0, 49, 1226
3311, 0, 49, 1226
3312, 0, 49, 1226
3313, 0, 49, 1226
3314, 0, 49, 1226
3315, 0, 49, 1226
3316, 0, 49, 1226
3317, 0, 49, 1226
3318, 0, 49, 1226
3319, 0, 49, 1226
3320, 0, 49, 1226
3321, 0, 49, 1226
3322, 0, 49, 1226
3323, 0, 49, 1226
3324, 0, 49, 1226
3325, 0, 49, 1226
3326, 0, 49, 1226
3327, 0, 49, 1226
3328, 0, 49, 1226
3329, 0, 49, 1226
3330, 0, 49, 1226
3331, 0, 49, 1226
3332, 0, 49, 1226
3333, 0, 49, 1226
3334, 0, 49, 1226
3335, 0, 49, 1226
3336, 0, 49, 1226
3337, 0, 49, 1226
3338, 0, 49, 1226
3339, 0, 49, 1226
3340, 0, 49, 1226
3341, 0, 49, 1226
3342, 0, 49, 1226
3343, 0, 49, 1226
3344, 0, 49, 1226
3345, 0, 49, 1226
3346, 0, 49, 1226
3347, 0, 49, 1226
3348, 0, 49, 1226
3349, 0, 49, 1226
3350, 0, 49, 1226
3351, 0, 49, 1226
3352, 0, 49, 1226
3353, 0, 49, 1226
3354, 0, 49, 1226
3355, 0, 49, 1226
3356, 0, 49, 1226
3357, 0, 49, 1226
3358, 0, 49, 1226
3359, 0, 49, 1226
3360, 0, 49, 1226
3361, 0, 49, 1226
3362, 0, 49, 1226
3363, 0, 49, 1226
3364, 0, 49, 1226
3365, 0, 49, 1226
3366, 0, 49, 1226
3367, 0, 49, 1226
3368, 0, 49, 1226
3369, 0, 49, 1226
3370, 0, 49, 1226
3371, 0, 49, 1226
3372, 0, 49, 1226
3373, 0, 49, 1226
3374, 0, 49, 1226
3375, 0, 49, 1226
3376, 0, 49, 1226
3377, 0, 49, 1226
3378, 0, 49, 1226
3379, 0, 49, 1226
3380, 0, 49, 1226
3381, 0, 49, 1226
3382, 0, 49, 1226
3383, 0, 49, 1226
3384, 0, 49, 1226
3385, 0, 49, 1226
3386, 0, 49, 1226
3387, 0, 49, 1226
3388, 0, 49, 1226
3389, 0, 49, 1226
3390, 0, 49, 1226
3391, 0, 49, 1226
3392, 0, 49, 1226
3393, 0, 49, 1226
3394, 0, 49, 1226
3395, 0, 49, 1226
3396, 0, 49, 1226
3397, 0, 49, 1226
3398, 0, 49, 1226
3399, 0, 49, 1226
3400, 0, 49, 1226
3401, 0, 49, 1226
3402, 0, 49, 1226
3403, 0, 49, 1226
3404, 0, 49, 1226
3405, 0, 49, 1226
3406, 0, 49, 1226
3407, 0, 49, 1226
3408, 0, 49, 1226
3409, 0, 49, 1226
3410, 0, 49, 1226
3411, 0, 49, 1226
3412, 0, 49, 1226
3413, 0, 49, 1226
3414, 0, 49, 1226
3415, 0, 49, 1226
3416, 0, 49, 1226
3417, 0, 49, 1226
3418, 0, 49, 1226
3419, 0, 49, 1226
3420, 0, 49, 1226
3421, 0, 49, 1226
3422, 0, 49, 1226
3423, 0, 49, 1226
3424, 0, 49, 1226
3425, 0, 49, 1226
3426, 0, 49, 1226
3427, 0, 49, 1226
3428, 0, 49, 1226
3429, 0, 49, 1226
3430, 0, 49, 1226
3431, 0, 49, 1226
3432, 0, 49, 1226
3433, 0, 49, 1226
3434, 0, 49, 1226
3435, 0, 49, 1226
3436, 0, 49, 1226
3437, 0, 49, 1226
3438, 0, 49, 1226
3439, 0, 49, 1226
3440, 0, 49, 1226
3441, 0, 49, 1226
3442, 0, 49, 1226
3443, 0, 49, 1226
3444, 0, 49, 1226
3445, 0, 49, 1226
3446, 0, 49, 1226
3447, 0, 49, 1226
3448, 0, 49, 1226
3449, 0, 49, 1226
3450, 0, 49, 1226
3451, 0, 49, 1226
3452, 0, 49, 1226
3453, 0, 49, 1226
3454, 0, 49, 1226
3455, 0, 49, 1226
3456, 0, 49, 1226
3457, 0, 49, 1226
3458, 0, 49, 1226
3459, 0, 49, 1226
3460, 0, 49, 1226
3461, 0, 49, 1226
3462, 0, 49, 1226
3463, 0, 49, 1226
3464, 0, 49, 1226
3465, 0, 49, 1226
3466, 0, 49, 1226
3467, 0, 49, 1226
3468, 0, 49, 1226
3469, 0, 49, 1226
3470, 0, 49, 1226
3471, 0, 49, 1226
3472, 0, 49, 1226
3473, 0, 49, 1226
3474, 0, 49, 1226
3475, 0, 49, 1226
3476, 0, 49, 1226
3477, 0, 49, 1226
3478, 0, 49, 1226
3479, 0, 49, 1226
3480, 0, 49, 1226
3481, 0, 49, 1226
3482, 0, 49, 1226
3483, 0, 49, 1226
3484, 0, 49, 1226
3485, 0, 49, 1226
3486, 0, 49, 1226
3487, 0, 49, 1226
3488, 0, 49, 1226
3489, 0, 49, 1226
3490, 0, 49, 1226
3491, 0, 49, 1226
3492, 0, 49, 1226
3493, 0, 49, 1226
3494, 0, 49, 1226
3495, 0, 49, 1226
3496, 0, 49, 1226
3497, 0, 49, 1226
3498, 0, 49, 1226
3499, 0, 49, 1226
3500, 0, 49, 1226
3501, 0, 49, 1226
3502, 0, 49, 1226
3503, 0, 49, 1226
3504, 0, 49, 1226
3505, 0, 49, 1226
3506, 0, 49, 1226
3507, 0, 49, 1226
3508, 0, 49, 1226
3509, 0, 49, 1226
3510, 0, 49, 1226
3511, 0, 49, 1226
3512, 0, 49, 1226
3513, 0, 49, 1226
3514, 0, 49, 1226
3515, 0, 49, 1226
3516, 0, 49, 1226
3517, 0, 49, 1226
3518, 0, 49, 1226
3519, 0, 49, 1226
3520, 0, 49, 1226
3521, 0, 49, 1226
3522, 0, 49, 1226
3523, 0, 49, 1226
3524, 0, 49, 1226
3525, 0, 49, 1226
3526, 0, 49, 1226
3527, 0, 49, 1226
3528, 0, 49, 1226
3529, 0, 49, 1226
3530, 0, 49, 1226
3531, 0, 49, 1226
3532, 0, 49, 1226
3533, 0, 49, 1226
3534, 0, 49, 1226
3535, 0, 49, 1226
3536, 0, 49, 1226
3537, 0, 49, 1226
3538, 0, 49, 1226
3539, 0, 49, 1226
3540, 0, 49, 1226
3541, 0, 49, 1226
3542, 0, 49, 1226
3543, 0, 49, 1226
3544, 0, 49, 1226
3545, 0, 49, 1226
3546, 0, 49, 1226
3547, 0, 49, 1226
3548, 0, 49, 1226
3549, 0, 49, 1226
3550, 0, 49, 1226
3551, 0, 49, 1226
3552, 0, 49, 1226
3553, 0, 49, 1226
3554, 0, 49, 1226
3555, 0, 49, 1226
3556, 0, 49, 1226
3557, 0, 49, 1226
3558, 0, 49, 1226
3559, 0, 49, 1226
3560, 0, 49, 1226
3561, 0, 49, 1226
3562, 0, 49, 1226
3563, 0, 49, 1226
3564, 0, 49, 1226
3565, 0, 49, 1226
3566, 0, 49, 1226
3567, 0, 49, 1226
3568, 0, 49, 1226
3569, 0, 49, 1226
3570, 0, 49, 1226
3571, 0, 49, 1226
3572, 0, 49, 1226
3573, 0, 49, 1226
3574, 0, 49, 1226
3575, 0, 49, 1226
3576, 0, 49, 1226
3577, 0, 49, 1226
3578, 0, 49, 1226
3579, 0, 49, 1226
3580, 0, 49, 1226
3581, 0, 49, 1226
3582, 0, 49, 1226
3583, 0, 49, 1226
3584, 0, 49, 1226
3585, 0, 49, 1226
3586, 0, 49, 1226
3587, 0, 49, 1226
3588, 0, 49, 1226
3589, 0, 49, 1226
3590, 0, 49, 1226
3591, 0, 49, 1226
3592, 0, 49, 1226
3593, 0, 49, 1226
3594, 0, 49, 1226
3595, 0, 49, 1226
3596, 0, 49, 1226
3597, 0, 49, 1226
3598, 0, 49, 1226
3599, 0, 49, 1226
3600, 0, 49, 1226
3601, 0, 49, 1226
3602, 0, 49, 1226
3603, 0, 49, 1226
3604, 0, 49, 1226
3605, 0, 49, 1226
3606, 0, 49, 1226
3607, 0, 49, 1226
3608, 0, 49, 1226
3609, 0, 49, 1226
3610, 0, 49, 1226
3611, 0, 49, 1226
3612, 0, 49, 1226
3613, 0, 49, 1226
3614, 0, 49, 1226
3615, 0, 49, 1226
3616, 0, 49, 1226
3617, 0, 49, 1226
3618, 0, 49, 1226
3619, 0, 49, 1226
3620, 0, 49, 1226
3621, 0, 49, 1226
3622, 0, 49, 1226
3623, 0, 49, 1226
3624, 0, 49, 1226
3625, 0, 49, 1226
3626, 0, 49, 1226
3627, 0, 49, 1226
3628, 0, 49, 1226
3629, 0, 49, 1226
3630, 0, 49, 1226
3631, 0, 49, 1226
3632, 0, 49, 1226
3633, 0, 49, 1226
3634, 0, 49, 1226
3635, 0, 49, 1226
3636, 0, 49, 1226
3637, 0, 49, 1226
3638, 0, 49, 1226
3639, 0, 49, 1226
3640, 0, 49, 1226
3641, 0, 49, 1226
3642, 0, 49, 1226
3643, 0, 49, 1226
3644, 0, 49, 1226
3645, 0, 49, 1226
3646, 0, 49, 1226
3647, 0, 49, 1226
3648, 0, 49, 1226
3649, 0, 49, 1226
3650, 0, 49, 1226
3651, 0, 49, 1226
3652, 0, 49, 1226
3653, 0, 49, 1226
3654, 0, 49, 1226
3655, 0, 49, 1226
3656, 0, 49, 1226
3657, 0, 49, 1226
3658, 0, 49, 1226
3659, 0, 49, 1226
3660, 0, 49, 1226
3661, 0, 49, 1226
3662, 0, 49, 1226
3663, 0, 49, 1226
3664, 0, 49, 1226
3665, 0, 49, 1226
3666, 0, 49, 1226
3667, 0, 49, 1226
3668, 0, 49, 1226
3669, 0, 49, 1226
3670, 0, 49, 1226
3671, 0, 49, 1226
3672, 0, 49, 1226
3673, 0, 49, 1226
3674, 0, 49, 1226
3675, 0, 49, 1226
3676, 0, 49, 1226
3677, 0, 49, 1226
3678, 0, 49, 1226
3679, 0, 49, 1226
3680, 0, 49, 1226
3681, 0, 49, 1226
3682, 0, 49, 1226
3683, 0, 49, 1226
3684, 0, 49, 1226
3685, 0, 49, 1226
3686, 0, 49, 1226
3687, 0, 49, 1226
3688, 0, 49, 1226
3689, 0, 49, 1226
3690, 0, 49, 1226
3691, 0, 49, 1226
3692, 0, 49, 1226
3693, 0, 49, 1226
3694, 0, 49, 1226
3695, 0, 49, 1226
3696, 0, 49, 1226
3697, 0, 49, 1226
3698, 0, 49, 1226
3699, 0, 49, 1226
3700, 0, 49, 1226
3701, 0, 49, 1226
3702, 0, 49, 1226
3703, 0, 49, 1226
3704, 0, 49, 1226
3705, 0, 49, 1226
3706, 0, 49, 1226
3707, 0, 49, 1226
3708, 0, 49, 1226
3709, 0, 49, 1226
3710, 0, 49, 1226
3711, 0, 49, 1226
3712, 0, 49, 1226
3713, 0, 49, 1226
3714, 0, 49, 1226
3715, 0, 49, 1226
3716, 0, 49, 1226
3717, 0, 49, 1226
3718, 0, 49, 1226
3719, 0, 49, 1226
3720, 0, 49, 1226
3721, 0, 49, 1226
3722, 0, 49, 1226
3723, 0, 49, 1226
3724, 0, 49, 1226
3725, 0, 49, 1226
3726, 0, 49, 1226
3727, 0, 49, 1226
3728, 0, 49, 1226
3729, 0, 49, 1226
3730, 0, 49, 1226
3731, 0, 49, 1226
3732, 0, 49, 1226
3733, 0, 49, 1226
3734, 0, 49, 1226
3735, 0, 49, 1226
3736, 0, 49, 1226
3737, 0, 49, 1226
3738, 0, 49, 1226
3739, 0, 49, 1226
3740, 0, 49, 1226
3741, 0, 49, 1226
3742, 0, 49, 1226
3743, 0, 49, 1226
3744, 0, 49, 1226
3745, 0, 49, 1226
3746, 0, 49, 1226
3747, 0, 49, 1226
3748, 0, 49, 1226
3749, 0, 49, 1226
3750, 0, 49, 1226
3751, 0, 49, 1226
3752, 0, 49, 1226
3753, 0, 49, 1226
3754, 0, 49, 1226
3755, 0, 49, 1226
3756, 0, 49, 1226
3757, 0, 49, 1226
3758, 0, 49, 1226
3759, 0, 49, 1226
3760, 0, 49, 1226
3761, 0, 49, 1226
3762, 0, 49, 1226
3763, 0, 49, 1226
3764, 0, 49, 1226
3765, 0, 49, 1226
3766, 0, 49, 1226
3767, 0, 49, 1226
3768, 0, 49, 1226
3769, 0, 49, 1226
3770, 0, 49, 1226
3771, 0, 49, 1226
3772, 0, 49, 1226
3773, 0, 49, 1226
3774, 0, 49, 1226
3775, 0, 49, 1226
3776, 0, 49, 1226
3777, 0, 49, 1226
3778, 0, 49, 1226
3779, 0, 49, 1226
3780, 0, 49, 1226
3781, 0, 49, 1226
3782, 0, 49, 1226
3783, 0, 49, 1226
3784, 0, 49, 1226
3785, 0, 49, 1226
3786, 0, 49, 1226
3787, 0, 49, 1226
3788, 0, 49, 1226
3789, 0, 49, 1226
3790, 0, 49, 1226
3791, 0, 49, 1226
3792, 0, 49, 1226
3793, 0, 49, 1226
3794, 0, 49, 1226
3795, 0, 49, 1226
3796, 0, 49, 1226
3797, 0, 49, 1226
3798, 0, 49, 1226
3799, 0, 49, 1226
3800, 0, 49, 1226
3801, 0, 49, 1226
3802, 0, 49, 1226
3803, 0, 49, 1226
3804, 0, 49, 1226
3805, 0, 49, 1226
3806, 0, 49, 1226
3807, 0, 49, 1226
3808, 0, 49, 1226
3809, 0, 49, 1226
3810, 0, 49, 1226
3811, 0, 49, 1226
3812, 0, 49, 1226
3813, 0, 49, 1226
3814, 0, 49, 1226
3815, 0, 49, 1226
3816, 0, 49, 1226
3817, 0, 49, 1226
3818, 0, 49, 1226
3819, 0, 49, 1226
3820, 0, 49, 1226
3821, 0, 49, 1226
3822, 0, 49, 1226
3823, 0, 49, 1226
3824, 0, 49, 1226
3825, 0, 49, 1226
3826, 0, 49, 1226
3827, 0, 49, 1226
3828, 0, 49, 1226
3829, 0, 49, 1226
3830, 0, 49, 1226
3831, 0, 49, 1226
3832, 0, 49, 1226
3833, 0, 49, 1226
3834, 0, 49, 1226
3835, 0, 49, 1226
3836, 0, 49, 1226
3837, 0, 49, 1226
3838, 0, 49, 1226
3839, 0, 49, 1226
3840, 0, 49, 1226
3841, 0, 49, 1226
3842, 0, 49, 1226
3843, 0, 49, 1226
3844, 0, 49, 1226
3845, 0, 49, 1226
3846, 0, 49, 1226
3847, 0, 49, 1226
3848, 0, 49, 1226
3849, 0, 49, 1226
3850, 0, 49, 1226
3851, 0, 49, 1226
3852, 0, 49, 1226
3853, 0, 49, 1226
3854, 0, 49, 1226
3855, 0, 49, 1226
3856, 0, 49, 1226
3857, 0, 49, 1226
3858, 0, 49, 1226
3859, 0, 49, 1226
3860, 0, 49, 1226
3861, 0, 49, 1226
3862, 0, 49, 1226
3863, 0, 49, 1226
3864, 0, 49, 1226
3865, 0, 49, 1226
3866, 0, 49, 1226
3867, 0, 49, 1226
3868, 0, 49, 1226
3869, 0, 49, 1226
3870, 0, 49, 1226
3871, 0, 49, 1226
3872, 0, 49, 1226
3873, 0, 49, 1226
3874, 0, 49, 1226
3875, 0, 49, 1226
3876, 0, 49, 1226
3877, 0, 49, 1226
3878, 0, 49, 1226
3879, 0, 49, 1226
3880, 0, 49, 1226
3881, 0, 49, 1226
3882, 0, 49, 1226
3883, 0, 49, 1226
3884, 0, 49, 1226
3885, 0, 49, 1226
3886, 0, 49, 1226
3887, 0, 49, 1226
3888, 0, 49, 1226
3889, 0, 49, 1226
3890, 0, 49, 1226
3891, 0, 49, 1226
3892, 0, 49, 1226
3893, 0, 49, 1226
3894, 0, 49, 1226
3895, 0, 49, 1226
3896, 0, 49, 1226
3897, 0, 49, 1226
3898, 0, 49, 1226
3899, 0, 49, 1226
3900, 0, 49, 1226
3901, 0, 49, 1226
3902, 0, 49, 1226
3903, 0, 49, 1226
3904, 0, 49, 1226
3905, 0, 49, 1226
3906, 0, 49, 1226
3907, 0, 49, 1226
3908, 0, 49, 1226
3909, 0, 49, 1226
3910, 0, 49, 1226
3911, 0, 49, 1226
3912, 0, 49, 1226
3913, 0, 49, 1226
3914, 0, 49, 1226
3915, 0, 49, 1226
3916, 0, 49, 1226
3917, 0, 49, 1226
3918, 0, 49, 1226
3919, 0, 49, 1226
3920, 0, 49, 1226
3921, 0, 49, 1226
3922, 0, 49, 1226
3923, 0, 49, 1226
3924, 0, 49, 1226
3925, 0, 49, 1226
3926, 0, 49, 1226
3927, 0, 49, 1226
3928, 0, 49, 1226
3929, 0, 49, 1226
3930, 0, 49, 1226
3931, 0, 49, 1226
3932, 0, 49, 1226
3933, 0, 49, 1226
3934, 0, 49, 1226
3935, 0, 49, 1226
3936, 0, 49, 1226
3937, 0, 49, 1226
3938, 0, 49, 1226
3939, 0, 49, 1226
3940, 0, 49, 1226
3941, 0, 49, 1226
3942, 0, 49, 1226
3943, 0, 49, 1226
3944, 0, 49, 1226
3945, 0, 49, 1226
3946, 0, 49, 1226
3947, 0, 49, 1226
3948, 0, 49, 1226
3949, 0, 49, 1226
3950, 0, 49, 1226
3951, 0, 49, 1226
3952, 0, 49, 1226
3953, 0, 49, 1226
3954, 0, 49, 1226
3955, 0, 49, 1226
3956, 0, 49, 1226
3957, 0, 49, 1226
3958, 0, 49, 1226
3959, 0, 49, 1226
3960, 0, 49, 1226
3961, 0, 49, 1226
3962, 0, 49, 1226
3963, 0, 49, 1226
3964, 0, 49, 1226
3965, 0, 49, 1226
3966, 0, 49, 1226
3967, 0, 49, 1226
3968, 0, 49, 1226
3969, 0, 49, 1226
3970, 0, 49, 1226
3971, 0, 49, 1226
3972, 0, 49, 1226
3973, 0, 49, 1226
3974, 0, 49, 1226
3975, 0, 49, 1226
3976, 0, 49, 1226
3977, 0, 49, 1226
3978, 0, 49, 1226
3979, 0, 49, 1226
3980, 0, 49, 1226
3981, 0, 49, 1226
3982, 0, 49, 1226
3983, 0, 49, 1226
3984, 0, 49, 1226
3985, 0, 49, 1226
3986, 0, 49, 1226
3987, 0, 49, 1226
3988, 0, 49, 1226
3989, 0, 49, 1226
3990, 0, 49, 1226
3991, 0, 49, 1226
3992, 0, 49, 1226
3993, 0, 49, 1226
3994, 0, 49, 1226
3995, 0, 49, 1226
3996, 0, 49, 1226
3997, 0, 49, 1226
3998, 0, 49, 1226
3999, 0, 49, 1226
4000, 0, 49, 1226
4001, 0, 49, 1226
4002, 0, 49, 1226
4003, 0, 49, 1226
4004, 0, 49, 1226
4005, 0, 49, 1226
4006, 0, 49, 1226
4007, 0, 49, 1226
4008, 0, 49, 1226
4009, 0, 49, 1226
4010, 0, 49, 1226
4011, 0, 49, 1226
4012, 0, 49, 1226
4013, 0, 49, 1226
4014, 0, 49, 1226
4015, 0, 49, 1226
4016, 0, 49, 1226
4017, 0, 49, 1226
4018, 0, 49, 1226
4019, 0, 49, 1226
4020, 0, 49, 1226
4021, 0, 49, 1226
4022, 0, 49, 1226
4023, 0, 49, 1226
4024, 0, 49, 1226
4025, 0, 49, 1226
4026, 0, 49, 1226
4027, 0, 49, 1226
4028, 0, 49, 1226
4029, 0, 49, 1226
4030, 0, 49, 1226
4031, 0, 49, 1226
4032, 0, 49, 1226
4033, 0, 49, 1226
4034, 0, 49, 1226
4035, 0, 49, 1226
4036, 0, 49, 1226
4037, 0, 49, 1226
4038, 0, 49, 1226
4039, 0, 49, 1226
4040, 0, 49, 1226
4041, 0, 49, 1226
4042, 0, 49, 1226
4043, 0, 49, 1226
4044, 0, 49, 1226
4045, 0, 49, 1226
4046, 0, 49, 1226
4047, 0, 49, 1226
4048, 0, 49, 1226
4049, 0, 49, 1226
4050, 0, 49, 1226
4051, 0, 49, 1226
4052, 0, 49, 1226
4053, 0, 49, 1226
4054, 0, 49, 1226
4055, 0, 49, 1226
4056, 0, 49, 1226
4057, 0, 49, 1226
4058, 0, 49, 1226
4059, 0, 49, 1226
4060, 0, 49, 1226
4061, 0, 49, 1226
4062, 0, 49, 1226
4063, 0, 49, 1226
4064, 0, 49, 1226
4065, 0, 49, 1226
4066, 0, 49, 1226
4067, 0, 49, 1226
4068, 0, 49, 1226
4069, 0, 49, 1226
4070, 0, 49, 1226
4071, 0, 49, 1226
4072, 0, 49, 1226
4073, 0, 49, 1226
4074, 0, 49, 1226
4075, 0, 49, 1226
4076, 0, 49, 1226
4077, 0, 49, 1226
4078, 0, 49, 1226
4079, 0, 49, 1226
4080, 0, 49, 1226
4081, 0, 49, 1226
4082, 0, 49, 1226
4083, 0, 49, 1226
4084, 0, 49, 1226
4085, 0, 49, 1226
4086, 0, 49, 1226
4087, 0, 49, 1226
4088, 0, 49, 1226
4089, 0, 49, 1226
4090, 0, 49, 1226
4091, 0, 49, 1226
4092, 0, 49, 1226
4093, 0, 49, 1226
4094, 0, 49, 1226
4095, 0, 49, 1226
4096, 0, 49, 1226
4097, 0, 49, 1226
4098, 0, 49, 1226
4099, 0, 49, 1226
4100, 0, 49, 1226
4101, 0, 49, 1226
4102, 0, 49, 1226
4103, 0, 49, 1226
4104, 0, 49, 1226
4105, 0, 49, 1226
4106, 0, 49, 1226
4107, 0, 49, 1226
4108, 0, 49, 1226
4109, 0, 49, 1226
4110, 0, 49, 1226
4111, 0, 49, 1226
4112, 0, 49, 1226
4113, 0, 49, 1226
4114, 0, 49, 1226
4115, 0, 49, 1226
4116, 0, 49, 1226
4117, 0, 49, 1226
4118, 0, 49, 1226
4119, 0, 49, 1226
4120, 0, 49, 1226
4121, 0, 49, 1226
4122, 0, 49, 1226
4123, 0, 49, 1226
4124, 0, 49, 1226
4125, 0, 49, 1226
4126, 0, 49, 1226
4127, 0, 49, 1226
4128, 0, 49, 1226
4129, 0, 49, 1226
4130, 0, 49, 1226
4131, 0, 49, 1226
4132, 0, 49, 1226
4133, 0, 49, 1226
4134, 0, 49, 1226
4135, 0, 49, 1226
4136, 0, 49, 1226
4137, 0, 49, 1226
4138, 0, 49, 1226
4139, 0, 49, 1226
4140, 0, 49, 1226
4141, 0, 49, 1226
4142, 0, 49, 1226
4143, 0, 49, 1226
4144, 0, 49, 1226
4145, 0, 49, 1226
4146, 0, 49, 1226
4147, 0, 49, 1226
4148, 0, 49, 1226
4149, 0, 49, 1226
4150, 0, 49, 1226
4151, 0, 49, 1226
4152, 0, 49, 1226
4153, 0, 49, 1226
4154, 0, 49, 1226
4155, 0, 49, 1226
4156, 0, 49, 1226
4157, 0, 49, 1226
4158, 0, 49, 1226
4159, 0, 49, 1226
4160, 0, 49, 1226
4161, 0, 49, 1226
4162, 0, 49, 1226
4163, 0, 49, 1226
4164, 0, 49, 1226
4165, 0, 49, 1226
4166, 0, 49, 1226
4167, 0, 49, 1226
4168, 0, 49, 1226
4169, 0, 49, 1226
4170, 0, 49, 1226
4171, 0, 49, 1226
4172, 0, 49, 1226
4173, 0, 49, 1226
4174, 0, 49, 1226
4175, 0, 49, 1226
4176, 0, 49, 1226
4177, 0, 49, 1226
4178, 0, 49, 1226
4179, 0, 49, 1226
4180, 0, 49, 1226
4181, 0, 49, 1226
4182, 0, 49, 1226
4183, 0, 49, 1226
4184, 0, 49, 1226
4185, 0, 49, 1226
4186, 0, 49, 1226
4187, 0, 49, 1226
4188, 0, 49, 1226
4189, 0, 49, 1226
4190, 0, 49, 1226
4191, 0, 49, 1226
4192, 0, 49, 1226
4193, 0, 49, 1226
4194, 0, 49, 1226
4195, 0, 49, 1226
4196, 0, 49, 1226
4197, 0, 49, 1226
4198, 0, 49, 1226
4199, 0, 49, 1226
4200, 0, 49, 1226
4201, 0, 49, 1226
4202, 0, 49, 1226
4203, 0, 49, 1226
4204, 0, 49, 1226
4205, 0, 49, 1226
4206, 0, 49, 1226
4207, 0, 49, 1226
4208, 0, 49, 1226
4209, 0, 49, 1226
4210, 0, 49, 1226
4211, 0, 49, 1226
4212, 0, 49, 1226
4213, 0, 49, 1226
4214, 0, 49, 1226
4215, 0, 49, 1226
4216, 0, 49, 1226
4217, 0, 49, 1226
4218, 0, 49, 1226
4219, 0, 49, 1226
4220, 0, 49, 1226
4221, 0, 49, 1226
4222, 0, 49, 1226
4223, 0, 49, 1226
4224, 0, 49, 1226
4225, 0, 49, 1226
4226, 0, 49, 1226
4227, 0, 49, 1226
4228, 0, 49, 1226
4229, 0, 49, 1226
4230, 0, 49, 1226
4231, 0, 49, 1226
4232, 0, 49, 1226
4233, 0, 49, 1226
4234, 0, 49, 1226
4235, 0, 49, 1226
4236, 0, 49, 1226
4237, 0, 49, 1226
4238, 0, 49, 1226
4239, 0, 49, 1226
4240, 0, 49, 1226
4241, 0, 49, 1226
4242, 0, 49, 1226
4243, 0, 49, 1226
4244, 0, 49, 1226
4245, 0, 49, 1226
4246, 0, 49, 1226
4247, 0, 49, 1226
4248, 0, 49, 1226
4249, 0, 49, 1226
4250, 0, 49, 1226
4251, 0, 49, 1226
4252, 0, 49, 1226
4253, 0, 49, 1226
4254, 0, 49, 1226
4255, 0, 49, 1226
4256, 0, 49, 1226
4257, 0, 49, 1226
4258, 0, 49, 1226
4259, 0, 49, 1226
4260, 0, 49, 1226
4261, 0, 49, 1226
4262, 0, 49, 1226
4263, 0, 49, 1226
4264, 0, 49, 1226
4265, 0, 49, 1226
4266, 0, 49, 1226
4267, 0, 49, 1226
4268, 0, 49, 1226
4269, 0, 49, 1226
4270, 0, 49, 1226
4271, 0, 49, 1226
4272, 0, 49, 1226
4273, 0, 49, 1226
4274, 0, 49, 1226
4275, 0, 49, 1226
4276, 0, 49, 1226
4277, 0, 49, 1226
4278, 0, 49, 1226
4279, 0, 49, 1226
4280, 0, 49, 1226
4281, 0, 49, 1226
4282, 0, 49, 1226
4283, 0, 49, 1226
4284, 0, 49, 1226
4285, 0, 49, 1226
4286, 0, 49, 1226
4287, 0, 49, 1226
4288, 0, 49, 1226
4289, 0, 49, 1226
4290, 0, 49, 1226
4291, 0, 49, 1226
4292, 0, 49, 1226
4293, 0, 49, 1226
4294, 0, 49, 1226
4295, 0, 49, 1226
4296, 0, 49, 1226
4297, 0, 49, 1226
4298, 0, 49, 1226
4299, 0, 49, 1226
4300, 0, 49, 1226
4301, 0, 49, 1226
4302, 0, 49, 1226
4303, 0, 49, 1226
4304, 0, 49, 1226
4305, 0, 49, 1226
4306, 0, 49, 1226
4307, 0, 49, 1226
4308, 0, 49, 1226
4309, 0, 49, 1226
4310, 0, 49, 1226
4311, 0, 49, 1226
4312, 0, 49, 1226
4313, 0, 49, 1226
4314, 0, 49, 1226
4315, 0, 49, 1226
4316, 0, 49, 1226
4317, 0, 49, 1226
4318, 0, 49, 1226
4319, 0, 49, 1226
4320, 0, 49, 1226
4321, 0, 49, 1226
4322, 0, 49, 1226
4323, 0, 49, 1226
4324, 0, 49, 1226
4325, 0, 49, 1226
4326, 0, 49, 1226
4327, 0, 49, 1226
4328, 0, 49, 1226
4329, 0, 49, 1226
4330, 0, 49, 1226
4331, 0, 49, 1226
4332, 0, 49, 1226
4333, 0, 49, 1226
4334, 0, 49, 1226
4335, 0, 49, 1226
4336, 0, 49, 1226
4337, 0, 49, 1226
4338, 0, 49, 1226
4339, 0, 49, 1226
4340, 0, 49, 1226
4341, 0, 49, 1226
4342, 0, 49, 1226
4343, 0, 49, 1226
4344, 0, 49, 1226
4345, 0, 49, 1226
4346, 0, 49, 1226
4347, 0, 49, 1226
4348, 0, 49, 1226
4349, 0, 49, 1226
4350, 0, 49, 1226
4351, 0, 49, 1226
4352, 0, 49, 1226
4353, 0, 49, 1226
4354, 0, 49, 1226
4355, 0, 49, 1226
4356, 0, 49, 1226
4357, 0, 49, 1226
4358, 0, 49, 1226
4359, 0, 49, 1226
4360, 0, 49, 1226
4361, 0, 49, 1226
4362, 0, 49, 1226
4363, 0, 49, 1226
4364, 0, 49, 1226
4365, 0, 49, 1226
4366, 0, 49, 1226
4367, 0, 49, 1226
4368, 0, 49, 1226
4369, 0, 49, 1226
4370, 0, 49, 1226
4371, 0, 49, 1226
4372, 0, 49, 1226
4373, 0, 49, 1226
4374, 0, 49, 1226
4375, 0, 49, 1226
4376, 0, 49, 1226
4377, 0, 49, 1226
4378, 0, 49, 1226
4379, 0, 49, 1226
4380, 0, 49, 1226
4381, 0, 49, 1226
4382, 0, 49, 1226
4383, 0, 49, 1226
4384, 0, 49, 1226
4385, 0, 49, 1226
4386, 0, 49, 1226
4387, 0, 49, 1226
4388, 0, 49, 1226
4389, 0, 49, 1226
4390, 0, 49, 1226
4391, 0, 49, 1226
4392, 0, 49, 1226
4393, 0, 49, 1226
4394, 0, 49, 1226
4395, 0, 49, 1226
4396, 0, 49, 1226
4397, 0, 49, 1226
4398, 0, 49, 1226
4399, 0, 49, 1226
4400, 0, 49, 1226
4401, 0, 49, 1226
4402, 0, 49, 1226
4403, 0, 49, 1226
4404, 0, 49, 1226
4405, 0, 49, 1226
4406, 0, 49, 1226
4407, 0, 49, 1226
4408, 0, 49, 1226
4409, 0, 49, 1226
4410, 0, 49, 1226
4411, 0, 49, 1226
4412, 0, 49, 1226
4413, 0, 49, 1226
4414, 0, 49, 1226
4415, 0, 49, 1226
4416, 0, 49, 1226
4417, 0, 49, 1226
4418, 0, 49, 1226
4419, 0, 49, 1226
4420, 0, 49, 1226
4421, 0, 49, 1226
4422, 0, 49, 1226
4423, 0, 49, 1226
4424, 0, 49, 1226
4425, 0, 49, 1226
4426, 0, 49, 1226
4427, 0, 49, 1226
4428, 0, 49, 1226
4429, 0, 49, 1226
4430, 0, 49, 1226
4431, 0, 49, 1226
4432, 0, 49, 1226
4433, 0, 49, 1226
4434, 0, 49, 1226
4435, 0, 49, 1226
4436, 0, 49, 1226
4437, 0, 49, 1226
4438, 0, 49, 1226
4439, 0, 49, 1226
4440, 0, 49, 1226
4441, 0, 49, 1226
4442, 0, 49, 1226
4443, 0, 49, 1226
4444, 0, 49, 1226
4445, 0, 49, 1226
4446, 0, 49, 1226
4447, 0, 49, 1226
4448, 0, 49, 1226
4449, 0, 49, 1226
4450, 0, 49, 1226
4451, 0, 49, 1226
4452, 0, 49, 1226
4453, 0, 49, 1226
4454, 0, 49, 1226
4455, 0, 49, 1226
4456, 0, 49, 1226
4457, 0, 49, 1226
4458, 0, 49, 1226
4459, 0, 49, 1226
4460, 0, 49, 1226
4461, 0, 49, 1226
4462, 0, 49, 1226
4463, 0, 49, 1226
4464, 0, 49, 1226
4465, 0, 49, 1226
4466, 0, 49, 1226
4467, 0, 49, 1226
4468, 0, 49, 1226
4469, 0, 49, 1226
4470, 0, 49, 1226
4471, 0, 49, 1226
4472, 0, 49, 1226
4473, 0, 49, 1226
4474, 0, 49, 1226
4475, 0, 49, 1226
4476, 0, 49, 1226
4477, 0, 49, 1226
4478, 0, 49, 1226
4479, 0, 49, 1226
4480, 0, 49, 1226
4481, 0, 49, 1226
4482, 0, 49, 1226
4483, 0, 49, 1226
4484, 0, 49, 1226
4485, 0, 49, 1226
4486, 0, 49, 1226
4487, 0, 49, 1226
4488, 0, 49, 1226
4489, 0, 49, 1226
4490, 0, 49, 1226
4491, 0, 49, 1226
4492, 0, 49, 1226
4493, 0, 49, 1226
4494, 0, 49, 1226
4495, 0, 49, 1226
4496, 0, 49, 1226
4497, 0, 49, 1226
4498, 0, 49, 1226
4499, 0, 49, 1226
4500, 0, 49, 1226
4501, 0, 49, 1226
4502, 0, 49, 1226
4503, 0, 49, 1226
4504, 0, 49, 1226
4505, 0, 49, 1226
4506, 0, 49, 1226
4507, 0, 49, 1226
4508, 0, 49, 1226
4509, 0, 49, 1226
4510, 0, 49, 1226
4511, 0, 49, 1226
4512, 0, 49, 1226
4513, 0, 49, 1226
4514, 0, 49, 1226
4515, 0, 49, 1226
4516, 0, 49, 1226
4517, 0, 49, 1226
4518, 0, 49, 1226
4519, 0, 49, 1226
4520, 0, 49, 1226
4521, 0, 49, 1226
4522, 0, 49, 1226
4523, 0, 49, 1226
4524, 0, 49, 1226
4525, 0, 49, 1226
4526, 0, 49, 1226
4527, 0, 49, 1226
4528, 0, 49, 1226
4529, 0, 49, 1226
4530, 0, 49, 1226
4531, 0, 49, 1226
4532, 0, 49, 1226
4533, 0, 49, 1226
4534, 0, 49, 1226
4535, 0, 49, 1226
4536, 0, 49, 1226
4537, 0, 49, 1226
4538, 0, 49, 1226
4539, 0, 49, 1226
4540, 0, 49, 1226
4541, 0, 49, 1226
4542, 0, 49, 1226
4543, 0, 49, 1226
4544, 0, 49, 1226
4545, 0, 49, 1226
4546, 0, 49, 1226
4547, 0, 49, 1226
4548, 0, 49, 1226
4549, 0, 49, 1226
4550, 0, 49, 1226
4551, 0, 49, 1226
4552, 0, 49, 1226
4553, 0, 49, 1226
4554, 0, 49, 1226
4555, 0, 49, 1226
4556, 0, 49, 1226
4557, 0, 49, 1226
4558, 0, 49, 1226
4559, 0, 49, 1226
4560, 0, 49, 1226
4561, 0, 49, 1226
4562, 0, 49, 1226
4563, 0, 49, 1226
4564, 0, 49, 1226
4565, 0, 49, 1226
4566, 0, 49, 1226
4567, 0, 49, 1226
4568, 0, 49, 1226
4569, 0, 49, 1226
4570, 0, 49, 1226
4571, 0, 49, 1226
4572, 0, 49, 1226
4573, 0, 49, 1226
4574, 0, 49, 1226
4575, 0, 49, 1226
4576, 0, 49, 1226
4577, 0, 49, 1226
4578, 0, 49, 1226
4579, 0, 49, 1226
4580, 0, 49, 1226
4581, 0, 49, 1226
4582, 0, 49, 1226
4583, 0, 49, 1226
4584, 0, 49, 1226
4585, 0, 49, 1226
4586, 0, 49, 1226
4587, 0, 49, 1226
4588, 0, 49, 1226
4589, 0, 49, 1226
4590, 0, 49, 1226
4591, 0, 49, 1226
4592, 0, 49, 1226
4593, 0, 49, 1226
4594, 0, 49, 1226
4595, 0, 49, 1226
4596, 0, 49, 1226
4597, 0, 49, 1226
4598, 0, 49, 1226
4599, 0, 49, 1226
4600, 0, 49, 1226
4601, 0, 49, 1226
4602, 0, 49, 1226
4603, 0, 49, 1226
4604, 0, 49, 1226
4605, 0, 49, 1226
4606, 0, 49, 1226
4607, 0, 49, 1226
4608, 0, 49, 1226
4609, 0, 49, 1226
4610, 0, 49, 1226
4611, 0, 49, 1226
4612, 0, 49, 1226
4613, 0, 49, 1226
4614, 0, 49, 1226
4615, 0, 49, 1226
4616, 0, 49, 1226
4617, 0, 49, 1226
4618, 0, 49, 1226
4619, 0, 49, 1226
4620, 0, 49, 1226
4621, 0, 49, 1226
4622, 0, 49, 1226
4623, 0, 49, 1226
4624, 0, 49, 1226
4625, 0, 49, 1226
4626, 0, 49, 1226
4627, 0, 49, 1226
4628, 0, 49, 1226
4629, 0, 49, 1226
4630, 0, 49, 1226
4631, 0, 49, 1226
4632, 0, 49, 1226
4633, 0, 49, 1226
4634, 0, 49, 1226
4635, 0, 49, 1226
4636, 0, 49, 1226
4637, 0, 49, 1226
4638, 0, 49, 1226
4639, 0, 49, 1226
4640, 0, 49, 1226
4641, 0, 49, 1226
4642, 0, 49, 1226
4643, 0, 49, 1226
4644, 0, 49, 1226
4645, 0, 49, 1226
4646, 0, 49, 1226
4647, 0, 49, 1226
4648, 0, 49, 1226
4649, 0, 49, 1226
4650, 0, 49, 1226
4651, 0, 49, 1226
4652, 0, 49, 1226
4653, 0, 49, 1226
4654, 0, 49, 1226
4655, 0, 49, 1226
4656, 0, 49, 1226
4657, 0, 49, 1226
4658, 0, 49, 1226
4659, 0, 49, 1226
4660, 0, 49, 1226
4661, 0, 49, 1226
4662, 0, 49, 1226
4663, 0, 49, 1226
4664, 0, 49, 1226
4665, 0, 49, 1226
4666, 0, 49, 1226
4667, 0, 49, 1226
4668, 0, 49, 1226
4669, 0, 49, 1226
4670, 0, 49, 1226
4671, 0, 49, 1226
4672, 0, 49, 1226
4673, 0, 49, 1226
4674, 0, 49, 1226
4675, 0, 49, 1226
4676, 0, 49, 1226
4677, 0, 49, 1226
4678, 0, 49, 1226
4679, 0, 49, 1226
4680, 0, 49, 1226
4681, 0, 49, 1226
4682, 0, 49, 1226
4683, 0, 49, 1226
4684, 0, 49, 1226
4685, 0, 49, 1226
4686, 0, 49, 1226
4687, 0, 49, 1226
4688, 0, 49, 1226
4689, 0, 49, 1226
4690, 0, 49, 1226
4691, 0, 49, 1226
4692, 0, 49, 1226
4693, 0, 49, 1226
4694, 0, 49, 1226
4695, 0, 49, 1226
4696, 0, 49, 1226
4697, 0, 49, 1226
4698, 0, 49, 1226
4699, 0, 49, 1226
4700, 0, 49, 1226
4701, 0, 49, 1226
4702, 0, 49, 1226
4703, 0, 49, 1226
4704, 0, 49, 1226
4705, 0, 49, 1226
4706, 0, 49, 1226
4707, 0, 49, 1226
4708, 0, 49, 1226
4709, 0, 49, 1226
4710, 0, 49, 1226
4711, 0, 49, 1226
4712, 0, 49, 1226
4713, 0, 49, 1226
4714, 0, 49, 1226
4715, 0, 49, 1226
4716, 0, 49, 1226
4717, 0, 49, 1226
4718, 0, 49, 1226
4719, 0, 49, 1226
4720, 0, 49, 1226
4721, 0, 49, 1226
4722, 0, 49, 1226
4723, 0, 49, 1226
4724, 0, 49, 1226
4725, 0, 49, 1226
4726, 0, 49, 1226
4727, 0, 49, 1226
4728, 0, 49, 1226
4729, 0, 49, 1226
4730, 0, 49, 1226
4731, 0, 49, 1226
4732, 0, 49, 1226
4733, 0, 49, 1226
4734, 0, 49, 1226
4735, 0, 49, 1226
4736, 0, 49, 1226
4737, 0, 49, 1226
4738, 0, 49, 1226
4739, 0, 49, 1226
4740, 0, 49, 1226
4741, 0, 49, 1226
4742, 0, 49, 1226
4743, 0, 49, 1226
4744, 0, 49, 1226
4745, 0, 49, 1226
4746, 0, 49, 1226
4747, 0, 49, 1226
4748, 0, 49, 1226
4749, 0, 49, 1226
4750, 0, 49, 1226
4751, 0, 49, 1226
4752, 0, 49, 1226
4753, 0, 49, 1226
4754, 0, 49, 1226
4755, 0, 49, 1226
4756, 0, 49, 1226
4757, 0, 49, 1226
4758, 0, 49, 1226
4759, 0, 49, 1226
4760, 0, 49, 1226
4761, 0, 49, 1226
4762, 0, 49, 1226
4763, 0, 49, 1226
4764, 0, 49, 1226
4765, 0, 49, 1226
4766, 0, 49, 1226
4767, 0, 49, 1226
4768, 0, 49, 1226
4769, 0, 49, 1226
4770, 0, 49, 1226
4771, 0, 49, 1226
4772, 0, 49, 1226
4773, 0, 49, 1226
4774, 0, 49, 1226
4775, 0, 49, 1226
4776, 0, 49, 1226
4777, 0, 49, 1226
4778, 0, 49, 1226
4779, 0, 49, 1226
4780, 0, 49, 1226
4781, 0, 49, 1226
4782, 0, 49, 1226
4783, 0, 49, 1226
4784, 0, 49, 1226
4785, 0, 49, 1226
4786, 0, 49, 1226
4787, 0, 49, 1226
4788, 0, 49, 1226
4789, 0, 49, 1226
4790, 0, 49, 1226
4791, 0, 49, 1226
4792, 0, 49, 1226
4793, 0, 49, 1226
4794, 0, 49, 1226
4795, 0, 49, 1226
4796, 0, 49, 1226
4797, 0, 49, 1226
4798, 0, 49, 1226
4799, 0, 49, 1226
4800, 0, 49, 1226
4801, 0, 49, 1226
4802, 0, 49, 1226
4803, 0, 49, 1226
4804, 0, 49, 1226
4805, 0, 49, 1226
4806, 0, 49, 1226
4807, 0, 49, 1226
4808, 0, 49, 1226
4809, 0, 49, 1226
4810, 0, 49, 1226
4811, 0, 49, 1226
4812, 0, 49, 1226
4813, 0, 49, 1226
4814, 0, 49, 1226
4815, 0, 49, 1226
4816, 0, 49, 1226
4817, 0, 49, 1226
4818, 0, 49, 1226
4819, 0, 49, 1226
4820, 0, 49, 1226
4821, 0, 49, 1226
4822, 0, 49, 1226
4823, 0, 49, 1226
4824, 0, 49, 1226
4825, 0, 49, 1226
4826, 0, 49, 1226
4827, 0, 49, 1226
4828, 0, 49, 1226
4829, 0, 49, 1226
4830, 0, 49, 1226
4831, 0, 49, 1226
4832, 0, 49, 1226
4833, 0, 49, 1226
4834, 0, 49, 1226
4835, 0, 49, 1226
4836, 0, 49, 1226
4837, 0, 49, 1226
4838, 0, 49, 1226
4839, 0, 49, 1226
4840, 0, 49, 1226
4841, 0, 49, 1226
4842, 0, 49, 1226
4843, 0, 49, 1226
4844, 0, 49, 1226
4845, 0, 49, 1226
4846, 0, 49, 1226
4847, 0, 49, 1226
4848, 0, 49, 1226
4849, 0, 49, 1226
4850, 0, 49, 1226
4851, 0, 49, 1226
4852, 0, 49, 1226
4853, 0, 49, 1226
4854, 0, 49, 1226
4855, 0, 49, 1226
4856, 0, 49, 1226
4857, 0, 49, 1226
4858, 0, 49, 1226
4859, 0, 49, 1226
4860, 0, 49, 1226
4861, 0, 49, 1226
4862, 0, 49, 1226
4863, 0, 49, 1226
4864, 0, 49, 1226
4865, 0, 49, 1226
4866, 0, 49, 1226
4867, 0, 49, 1226
4868, 0, 49, 1226
4869, 0, 49, 1226
4870, 0, 49, 1226
4871, 0, 49, 1226
4872, 0, 49, 1226
4873, 0, 49, 1226
4874, 0, 49, 1226
4875, 0, 49, 1226
4876, 0, 49, 1226
4877, 0, 49, 1226
4878, 0, 49, 1226
4879, 0, 49, 1226
4880, 0, 49, 1226
4881, 0, 49, 1226
4882, 0, 49, 1226
4883, 0, 49, 1226
4884, 0, 49, 1226
4885, 0, 49, 1226
4886, 0, 49, 1226
4887, 0, 49, 1226
4888, 0, 49, 1226
4889, 0, 49, 1226
4890, 0, 49, 1226
4891, 0, 49, 1226
4892, 0, 49, 1226
4893, 0, 49, 1226
4894, 0, 49, 1226
4895, 0, 49, 1226
4896, 0, 49, 1226
4897, 0, 49, 1226
4898, 0, 49, 1226
4899, 0, 49, 1226
4900, 0, 49, 1226
4901, 0, 49, 1226
4902, 0, 49, 1226
4903, 0, 49, 1226
4904, 0, 49, 1226
4905, 0, 49, 1226
4906, 0, 49, 1226
4907, 0, 49, 1226
4908, 0, 49, 1226
4909, 0, 49, 1226
4910, 0, 49, 1226
4911, 0, 49, 1226
4912, 0, 49, 1226
4913, 0, 49, 1226
4914, 0, 49, 1226
4915, 0, 49, 1226
4916, 0, 49, 1226
4917, 0, 49, 1226
4918, 0, 49, 1226
4919, 0, 49, 1226
4920, 0, 49, 1226
4921, 0, 49, 1226
4922, 0, 49, 1226
4923, 0, 49, 1226
4924, 0, 49, 1226
4925, 0, 49, 1226
4926, 0, 49, 1226
4927, 0, 49, 1226
4928, 0, 49, 1226
4929, 0, 49, 1226
4930, 0, 49, 1226
4931, 0, 49, 1226
4932, 0, 49, 1226
4933, 0, 49, 1226
4934, 0, 49, 1226
4935, 0, 49, 1226
4936, 0, 49, 1226
4937, 0, 49, 1226
4938, 0, 49, 1226
4939, 0, 49, 1226
4940, 0, 49, 1226
4941, 0, 49, 1226
4942, 0, 49, 1226
4943, 0, 49, 1226
4944, 0, 49, 1226
4945, 0, 49, 1226
4946, 0, 49, 1226
4947, 0, 49, 1226
4948, 0, 49, 1226
4949, 0, 49, 1226
4950, 0, 49, 1226
4951, 0, 49, 1226
4952, 0, 49, 1226
4953, 0, 49, 1226
4954, 0, 49, 1226
4955, 0, 49, 1226
4956, 0, 49, 1226
4957, 0, 49, 1226
4958, 0, 49, 1226
4959, 0, 49, 1226
4960, 0, 49, 1226
4961, 0, 49, 1226
4962, 0, 49, 1226
4963, 0, 49, 1226
4964, 0, 49, 1226
4965, 0, 49, 1226
4966, 0, 49, 1226
4967, 0, 49, 1226
4968, 0, 49, 1226
4969, 0, 49, 1226
4970, 0, 49, 1226
4971, 0, 49, 1226
4972, 0, 49, 1226
4973, 0, 49, 1226
4974, 0, 49, 1226
4975, 0, 49, 1226
4976, 0, 49, 1226
4977, 0, 49, 1226
4978, 0, 49, 1226
4979, 0, 49, 1226
4980, 0, 49, 1226
4981, 0, 49, 1226
4982, 0, 49, 1226
4983, 0, 49, 1226
4984, 0, 49, 1226
4985, 0, 49, 1226
4986, 0, 49, 1226
4987, 0, 49, 1226
4988, 0, 49, 1226
4989, 0, 49, 1226
4990, 0, 49, 1226
4991, 0, 49, 1226
4992, 0, 49, 1226
4993, 0, 49, 1226
4994, 0, 49, 1226
4995, 0, 49, 1226
4996, 0, 49, 1226
4997, 0, 49, 1226
4998, 0, 49, 1226
4999, 0, 49, 1226
5000, 0, 49, 1226
