game_counter, score, frames, highscore
1, 0, 49, 0
2, 0, 49, 0
3, 0, 49, 0
4, 0, 49, 0
5, 0, 49, 0
6, 0, 49, 0
7, 0, 49, 0
8, 0, 49, 0
9, 0, 48, 0
10, 0, 49, 0
11, 0, 49, 0
12, 0, 49, 0
13, 0, 51, 0
14, 1, 85, 0
15, 0, 49, 1
16, 0, 49, 1
17, 0, 49, 1
18, 0, 36, 1
19, 0, 58, 1
20, 0, 49, 1
21, 0, 59, 1
22, 1, 88, 1
23, 0, 51, 1
24, 1, 60, 1
25, 0, 49, 1
26, 0, 49, 1
27, 0, 49, 1
28, 0, 49, 1
29, 0, 50, 1
30, 0, 50, 1
31, 0, 49, 1
32, 1, 85, 1
33, 0, 42, 1
34, 0, 49, 1
35, 0, 49, 1
36, 0, 49, 1
37, 0, 49, 1
38, 0, 49, 1
39, 0, 49, 1
40, 0, 49, 1
41, 0, 49, 1
42, 1, 85, 1
43, 0, 59, 1
44, 0, 49, 1
45, 0, 49, 1
46, 0, 18, 1
47, 0, 49, 1
48, 0, 49, 1
49, 0, 49, 1
50, 0, 49, 1
51, 0, 49, 1
52, 0, 40, 1
53, 0, 18, 1
54, 0, 49, 1
55, 0, 49, 1
56, 0, 18, 1
57, 0, 49, 1
58, 0, 18, 1
59, 0, 34, 1
60, 0, 49, 1
61, 0, 49, 1
62, 0, 38, 1
63, 0, 49, 1
64, 1, 86, 1
65, 0, 49, 1
66, 0, 18, 1
67, 0, 49, 1
68, 0, 18, 1
69, 0, 49, 1
70, 0, 49, 1
71, 0, 39, 1
72, 0, 49, 1
73, 0, 18, 1
74, 0, 18, 1
75, 0, 49, 1
76, 0, 49, 1
77, 0, 48, 1
78, 0, 29, 1
79, 0, 49, 1
80, 0, 49, 1
81, 0, 49, 1
82, 0, 49, 1
83, 0, 18, 1
84, 0, 49, 1
85, 0, 49, 1
86, 0, 49, 1
87, 0, 32, 1
88, 0, 49, 1
89, 0, 18, 1
90, 0, 49, 1
91, 0, 33, 1
92, 0, 43, 1
93, 0, 39, 1
94, 0, 33, 1
95, 0, 49, 1
96, 0, 49, 1
97, 0, 18, 1
98, 0, 18, 1
99, 0, 32, 1
100, 0, 18, 1
101, 0, 33, 1
102, 0, 48, 1
103, 0, 18, 1
104, 0, 18, 1
105, 0, 50, 1
106, 0, 18, 1
107, 2, 123, 1
108, 0, 49, 2
109, 0, 49, 2
110, 1, 64, 2
111, 0, 32, 2
112, 0, 18, 2
113, 1, 93, 2
114, 0, 48, 2
115, 0, 48, 2
116, 0, 46, 2
117, 0, 49, 2
118, 0, 49, 2
119, 0, 18, 2
120, 0, 31, 2
121, 0, 18, 2
122, 0, 18, 2
123, 0, 18, 2
124, 0, 18, 2
125, 0, 18, 2
126, 0, 18, 2
127, 0, 32, 2
128, 0, 49, 2
129, 0, 49, 2
130, 0, 49, 2
131, 0, 18, 2
132, 0, 31, 2
133, 0, 18, 2
134, 0, 44, 2
135, 0, 49, 2
136, 0, 48, 2
137, 0, 33, 2
138, 0, 18, 2
139, 0, 45, 2
140, 0, 33, 2
141, 0, 33, 2
142, 0, 18, 2
143, 0, 49, 2
144, 1, 85, 2
145, 0, 49, 2
146, 0, 18, 2
147, 0, 18, 2
148, 0, 18, 2
149, 0, 18, 2
150, 0, 32, 2
151, 0, 49, 2
152, 0, 18, 2
153, 0, 49, 2
154, 0, 18, 2
155, 0, 37, 2
156, 0, 18, 2
157, 0, 18, 2
158, 0, 49, 2
159, 0, 49, 2
160, 0, 49, 2
161, 0, 49, 2
162, 0, 49, 2
163, 0, 49, 2
164, 0, 49, 2
165, 0, 49, 2
166, 0, 49, 2
167, 0, 49, 2
168, 0, 49, 2
169, 0, 49, 2
170, 0, 49, 2
171, 0, 49, 2
172, 0, 49, 2
173, 0, 49, 2
174, 0, 49, 2
175, 0, 49, 2
176, 0, 49, 2
177, 0, 49, 2
178, 0, 49, 2
179, 0, 18, 2
180, 0, 18, 2
181, 0, 49, 2
182, 0, 49, 2
183, 0, 49, 2
184, 1, 60, 2
185, 1, 66, 2
186, 0, 18, 2
187, 0, 49, 2
188, 0, 49, 2
189, 0, 49, 2
190, 0, 50, 2
191, 0, 49, 2
192, 0, 49, 2
193, 0, 49, 2
194, 0, 49, 2
195, 0, 49, 2
196, 0, 49, 2
197, 0, 49, 2
198, 0, 49, 2
199, 0, 49, 2
200, 0, 49, 2
201, 0, 49, 2
202, 0, 49, 2
203, 0, 49, 2
204, 0, 49, 2
205, 0, 49, 2
206, 0, 18, 2
207, 0, 18, 2
208, 0, 49, 2
209, 0, 50, 2
210, 0, 49, 2
211, 0, 50, 2
212, 0, 49, 2
213, 0, 50, 2
214, 0, 46, 2
215, 0, 18, 2
216, 0, 18, 2
217, 0, 18, 2
218, 0, 49, 2
219, 0, 18, 2
220, 0, 50, 2
221, 0, 18, 2
222, 0, 49, 2
223, 0, 49, 2
224, 0, 18, 2
225, 0, 49, 2
226, 0, 50, 2
227, 0, 49, 2
228, 0, 49, 2
229, 0, 49, 2
230, 3, 163, 2
231, 0, 18, 3
232, 0, 18, 3
233, 0, 18, 3
234, 0, 18, 3
235, 0, 18, 3
236, 0, 18, 3
237, 0, 49, 3
238, 0, 18, 3
239, 0, 18, 3
240, 0, 18, 3
241, 0, 18, 3
242, 0, 49, 3
243, 0, 50, 3
244, 0, 50, 3
245, 0, 49, 3
246, 0, 49, 3
247, 0, 49, 3
248, 1, 86, 3
249, 1, 93, 3
250, 0, 49, 3
251, 0, 49, 3
252, 0, 57, 3
253, 0, 49, 3
254, 3, 160, 3
255, 0, 56, 3
256, 0, 52, 3
257, 1, 85, 3
258, 0, 49, 3
259, 2, 98, 3
260, 1, 85, 3
261, 1, 61, 3
262, 3, 134, 3
263, 1, 87, 3
264, 0, 49, 3
265, 0, 49, 3
266, 0, 49, 3
267, 0, 49, 3
268, 0, 49, 3
269, 0, 49, 3
270, 0, 49, 3
271, 0, 49, 3
272, 0, 49, 3
273, 1, 85, 3
274, 0, 49, 3
275, 0, 56, 3
276, 1, 60, 3
277, 0, 50, 3
278, 0, 49, 3
279, 0, 49, 3
280, 0, 49, 3
281, 0, 49, 3
282, 0, 49, 3
283, 0, 49, 3
284, 0, 18, 3
285, 0, 49, 3
286, 0, 18, 3
287, 0, 18, 3
288, 0, 49, 3
289, 0, 49, 3
290, 0, 18, 3
291, 0, 33, 3
292, 0, 18, 3
293, 0, 18, 3
294, 0, 18, 3
295, 0, 49, 3
296, 0, 49, 3
297, 0, 18, 3
298, 0, 18, 3
299, 0, 18, 3
300, 0, 18, 3
