game_counter, score, frames, highscore
1, 0, 49, 0
2, 0, 47, 0
3, 1, 65, 0
4, 1, 61, 1
5, 1, 85, 1
6, 0, 50, 1
7, 0, 49, 1
8, 0, 49, 1
9, 0, 49, 1
10, 0, 56, 1
11, 0, 49, 1
12, 0, 49, 1
13, 0, 49, 1
14, 0, 49, 1
15, 0, 49, 1
16, 0, 49, 1
17, 0, 49, 1
18, 0, 49, 1
19, 0, 49, 1
20, 0, 49, 1
21, 0, 49, 1
22, 0, 49, 1
23, 0, 49, 1
24, 0, 49, 1
25, 0, 49, 1
26, 0, 49, 1
27, 0, 49, 1
28, 0, 49, 1
29, 0, 49, 1
30, 0, 49, 1
31, 0, 49, 1
32, 0, 49, 1
33, 0, 49, 1
34, 0, 49, 1
35, 0, 56, 1
36, 0, 49, 1
37, 0, 57, 1
38, 0, 49, 1
39, 0, 49, 1
40, 0, 49, 1
41, 0, 49, 1
42, 0, 49, 1
43, 0, 49, 1
44, 0, 45, 1
45, 0, 49, 1
46, 0, 49, 1
47, 0, 49, 1
48, 0, 18, 1
49, 0, 49, 1
50, 0, 49, 1
51, 0, 49, 1
52, 0, 53, 1
53, 0, 49, 1
54, 0, 49, 1
55, 0, 18, 1
56, 0, 49, 1
57, 0, 18, 1
58, 0, 18, 1
59, 1, 62, 1
60, 0, 49, 1
61, 0, 18, 1
62, 0, 49, 1
63, 0, 18, 1
64, 0, 49, 1
65, 0, 49, 1
66, 0, 49, 1
67, 0, 49, 1
68, 0, 49, 1
69, 0, 49, 1
70, 0, 49, 1
71, 0, 49, 1
72, 0, 49, 1
73, 0, 49, 1
74, 0, 49, 1
75, 0, 49, 1
76, 0, 49, 1
77, 0, 49, 1
78, 0, 49, 1
79, 0, 49, 1
80, 0, 49, 1
81, 0, 49, 1
82, 0, 49, 1
83, 0, 49, 1
84, 0, 49, 1
85, 0, 49, 1
86, 0, 33, 1
87, 0, 55, 1
88, 0, 49, 1
89, 0, 49, 1
90, 0, 49, 1
91, 0, 18, 1
92, 0, 49, 1
93, 0, 49, 1
94, 0, 49, 1
95, 0, 49, 1
96, 0, 49, 1
97, 0, 49, 1
98, 0, 18, 1
99, 0, 46, 1
100, 0, 49, 1
